<?xml version="1.0" encoding="UTF-8" standalone="no"?>
<svg
   width="512"
   height="1024"
   viewBox="0 0 135.46666 270.93333"
   version="1.1"
   id="svg8"
   inkscape:version="1.1.2 (0a00cf5339, 2022-02-04)"
   sodipodi:docname="rail_carriage.svg"
   xmlns:inkscape="http://www.inkscape.org/namespaces/inkscape"
   xmlns:sodipodi="http://sodipodi.sourceforge.net/DTD/sodipodi-0.dtd"
   xmlns="http://www.w3.org/2000/svg"
   xmlns:svg="http://www.w3.org/2000/svg"
   xmlns:rdf="http://www.w3.org/1999/02/22-rdf-syntax-ns#"
   xmlns:cc="http://creativecommons.org/ns#"
   xmlns:dc="http://purl.org/dc/elements/1.1/">
  <defs
     id="defs2" />
  <sodipodi:namedview
     id="base"
     pagecolor="#ffffff"
     bordercolor="#666666"
     borderopacity="1.0"
     inkscape:pageopacity="0"
     inkscape:pageshadow="2"
     inkscape:zoom="0.7"
     inkscape:cx="40.714286"
     inkscape:cy="467.14286"
     inkscape:document-units="px"
     inkscape:current-layer="layer1"
     inkscape:document-rotation="0"
     showgrid="true"
     units="px"
     inkscape:window-width="2560"
     inkscape:window-height="1349"
     inkscape:window-x="1200"
     inkscape:window-y="153"
     inkscape:window-maximized="1"
     inkscape:snap-grids="true"
     inkscape:pagecheckerboard="0">
    <inkscape:grid
       type="xygrid"
       id="grid833"
       units="px"
       empspacing="4"
       spacingy="4.2333333"
       spacingx="4.2333333" />
  </sodipodi:namedview>
  <metadata
     id="metadata5">
    <rdf:RDF>
      <cc:Work
         rdf:about="">
        <dc:format>image/svg+xml</dc:format>
        <dc:type
           rdf:resource="http://purl.org/dc/dcmitype/StillImage" />
      </cc:Work>
    </rdf:RDF>
  </metadata>
  <g
     inkscape:label="Desk"
     inkscape:groupmode="layer"
     id="layer1">
    <rect
       style="opacity:0.997213;fill:#1a1a1a;fill-opacity:1;stroke:#000000;stroke-width:2.11667;stroke-linejoin:round;stroke-opacity:0.999964;stop-color:#000000"
       id="rect1889"
       width="16.933332"
       height="8.4666662"
       x="59.266666"
       y="4.2333331"
       rx="0.042215593"
       ry="0.042215593" />
    <rect
       style="opacity:0.997213;fill:#1a1a1a;fill-opacity:1;stroke:#000000;stroke-width:2.11667;stroke-linejoin:round;stroke-opacity:0.999964;stop-color:#000000"
       id="rect1891"
       width="12.7"
       height="8.4666662"
       x="16.933332"
       y="4.2333331"
       rx="0.042215593"
       ry="0.042215593" />
    <rect
       style="opacity:0.997213;fill:#1a1a1a;fill-opacity:1;stroke:#000000;stroke-width:2.11667;stroke-linejoin:round;stroke-opacity:0.999964;stop-color:#000000"
       id="rect1893"
       width="12.7"
       height="8.4666662"
       x="105.83333"
       y="4.2333331"
       rx="0.042215593"
       ry="0.042215593" />
    <rect
       style="opacity:0.997213;fill:#1a1a1a;fill-opacity:1;stroke:#000000;stroke-width:2.11667;stroke-linejoin:round;stroke-opacity:0.999964;stop-color:#000000"
       id="rect1903"
       width="12.7"
       height="8.4666777"
       x="105.83333"
       y="258.23334"
       rx="0.042215593"
       ry="0.042215593" />
    <rect
       style="opacity:0.997213;fill:#1a1a1a;fill-opacity:1;stroke:#000000;stroke-width:2.11667;stroke-linejoin:round;stroke-opacity:0.999964;stop-color:#000000"
       id="rect1899"
       width="12.7"
       height="8.4666777"
       x="16.933332"
       y="258.23334"
       rx="0.042215593"
       ry="0.042215593" />
    <rect
       style="opacity:0.997213;fill:#1a1a1a;fill-opacity:1;stroke:#000000;stroke-width:2.11667;stroke-linejoin:round;stroke-opacity:0.999964;stop-color:#000000"
       id="rect1907"
       width="16.933332"
       height="8.4666824"
       x="59.266666"
       y="258.23334"
       rx="0.042215593"
       ry="0.042215593" />
    <rect
       style="opacity:0.997213;fill:#1a1a1a;fill-opacity:1;stroke:#1a1a1a;stroke-width:2.11668;stroke-linejoin:round;stroke-opacity:0.999964;stop-color:#000000"
       id="rect2238"
       width="105.83333"
       height="33.866669"
       x="16.933332"
       y="50.800003"
       rx="0.042215593"
       ry="0.042215601" />
    <rect
       style="opacity:0.997213;fill:#1a1a1a;fill-opacity:1;stroke:#1a1a1a;stroke-width:2.11668;stroke-linejoin:round;stroke-opacity:0.999964;stop-color:#000000"
       id="rect2238-1"
       width="105.83333"
       height="33.866669"
       x="16.933338"
       y="186.26666"
       rx="0.042215593"
       ry="0.042215601" />
    <path
       id="rect1000"
       style="opacity:0.997213;fill:#784421;fill-opacity:1;stroke:#28170b;stroke-width:8.00001;stroke-linejoin:round;stroke-opacity:0.999964;stop-color:#000000"
       d="M 16.160156 32 C 16.071763 32 16 32.071763 16 32.160156 L 16 991.83984 C 16 991.92824 16.071763 992 16.160156 992 L 495.83984 992 C 495.92824 992 496 991.92824 496 991.83984 L 496 32.160156 C 496 32.071763 495.92824 32 495.83984 32 L 16.160156 32 z M 96.160156 96 L 143.83984 96 C 143.92824 96 144 96.071763 144 96.160156 L 144 319.83984 C 144 319.92824 143.92824 320 143.83984 320 L 96.160156 320 C 96.071763 320 96 319.92824 96 319.83984 L 96 96.160156 C 96 96.071763 96.071763 96 96.160156 96 z M 368.16016 96 L 415.83984 96 C 415.92824 96 416 96.071763 416 96.160156 L 416 319.83984 C 416 319.92824 415.92824 320 415.83984 320 L 368.16016 320 C 368.07176 320 368 319.92824 368 319.83984 L 368 96.160156 C 368 96.071763 368.07176 96 368.16016 96 z M 224.16016 176 L 287.83984 176 C 287.92824 176 288 176.07176 288 176.16016 L 288 383.83984 C 288 383.92824 287.92824 384 287.83984 384 L 224.16016 384 C 224.07176 384 224 383.92824 224 383.83984 L 224 176.16016 C 224 176.07176 224.07176 176 224.16016 176 z M 96.160156 400 L 143.83984 400 C 143.92824 400 144 400.07176 144 400.16016 L 144 623.83984 C 144 623.92824 143.92824 624 143.83984 624 L 96.160156 624 C 96.071763 624 96 623.92824 96 623.83984 L 96 400.16016 C 96 400.07176 96.071763 400 96.160156 400 z M 368.16016 400 L 415.83984 400 C 415.92824 400 416 400.07176 416 400.16016 L 416 623.83984 C 416 623.92824 415.92824 624 415.83984 624 L 368.16016 624 C 368.07176 624 368 623.92824 368 623.83984 L 368 400.16016 C 368 400.07176 368.07176 400 368.16016 400 z M 224.16016 640 L 287.83984 640 C 287.92824 640 288 640.07176 288 640.16016 L 288 847.83984 C 288 847.92824 287.92824 848 287.83984 848 L 224.16016 848 C 224.07176 848 224 847.92824 224 847.83984 L 224 640.16016 C 224 640.07176 224.07176 640 224.16016 640 z M 96.160156 704 L 143.83984 704 C 143.92824 704 144 704.07176 144 704.16016 L 144 927.83984 C 144 927.92824 143.92824 928 143.83984 928 L 96.160156 928 C 96.071763 928 96 927.92824 96 927.83984 L 96 704.16016 C 96 704.07176 96.071763 704 96.160156 704 z M 368.16016 704 L 415.83984 704 C 415.92824 704 416 704.07176 416 704.16016 L 416 927.83984 C 416 927.92824 415.92824 928 415.83984 928 L 368.16016 928 C 368.07176 928 368 927.92824 368 927.83984 L 368 704.16016 C 368 704.07176 368.07176 704 368.16016 704 z "
       transform="scale(0.26458333)" />
    <rect
       style="opacity:0.997213;fill:#1a1a1a;fill-opacity:1;stroke:#000000;stroke-width:2.11667;stroke-linejoin:round;stroke-opacity:0.999964;stop-color:#000000"
       id="rect1895"
       width="21.166666"
       height="4.2333331"
       x="12.7"
       y="0"
       rx="0.042215593"
       ry="0.042215593" />
    <rect
       style="opacity:0.997213;fill:#1a1a1a;fill-opacity:1;stroke:#000000;stroke-width:2.11667;stroke-linejoin:round;stroke-opacity:0.999964;stop-color:#000000"
       id="rect1897"
       width="21.166666"
       height="4.2333331"
       x="101.6"
       y="0"
       rx="0.042215593"
       ry="0.042215593" />
    <rect
       style="opacity:0.997213;fill:#1a1a1a;fill-opacity:1;stroke:#000000;stroke-width:2.11667;stroke-linejoin:round;stroke-opacity:0.999964;stop-color:#000000"
       id="rect1901"
       width="21.166666"
       height="4.2333331"
       x="12.7"
       y="266.69998"
       rx="0.042215593"
       ry="0.042215593" />
    <rect
       style="opacity:0.997213;fill:#1a1a1a;fill-opacity:1;stroke:#000000;stroke-width:2.11667;stroke-linejoin:round;stroke-opacity:0.999964;stop-color:#000000"
       id="rect1905"
       width="21.166666"
       height="4.2333331"
       x="101.6"
       y="266.69998"
       rx="0.042215593"
       ry="0.042215593" />
  </g>
  <g
     inkscape:groupmode="layer"
     id="layer2"
     inkscape:label="Display" />
</svg>
