<?xml version="1.0" encoding="UTF-8" standalone="no"?>
<svg
   width="1024"
   height="1024"
   viewBox="0 0 270.93332 270.93333"
   version="1.1"
   id="svg8"
   inkscape:version="1.1.2 (0a00cf5339, 2022-02-04)"
   sodipodi:docname="6_wheeled_atv.svg"
   xmlns:inkscape="http://www.inkscape.org/namespaces/inkscape"
   xmlns:sodipodi="http://sodipodi.sourceforge.net/DTD/sodipodi-0.dtd"
   xmlns:xlink="http://www.w3.org/1999/xlink"
   xmlns="http://www.w3.org/2000/svg"
   xmlns:svg="http://www.w3.org/2000/svg"
   xmlns:rdf="http://www.w3.org/1999/02/22-rdf-syntax-ns#"
   xmlns:cc="http://creativecommons.org/ns#"
   xmlns:dc="http://purl.org/dc/elements/1.1/">
  <defs
     id="defs2">
    <linearGradient
       inkscape:collect="always"
       id="linearGradient20876">
      <stop
         style="stop-color:#000000;stop-opacity:0.62825519"
         offset="0"
         id="stop20872" />
      <stop
         style="stop-color:#e6e6e6;stop-opacity:0;"
         offset="1"
         id="stop20874" />
    </linearGradient>
    <linearGradient
       inkscape:collect="always"
       id="linearGradient11342">
      <stop
         style="stop-color:#000000;stop-opacity:0.42495009"
         offset="0"
         id="stop11338" />
      <stop
         style="stop-color:#000000;stop-opacity:0.08849966"
         offset="1"
         id="stop11340" />
    </linearGradient>
    <linearGradient
       inkscape:collect="always"
       id="linearGradient6059">
      <stop
         style="stop-color:#ffffff;stop-opacity:1"
         offset="0"
         id="stop6055" />
      <stop
         style="stop-color:#ffff00;stop-opacity:0.99885803"
         offset="1"
         id="stop6057" />
    </linearGradient>
    <linearGradient
       inkscape:collect="always"
       id="linearGradient5016">
      <stop
         style="stop-color:#ff0000;stop-opacity:1;"
         offset="0"
         id="stop5012" />
      <stop
         style="stop-color:#ff0000;stop-opacity:0;"
         offset="1"
         id="stop5014" />
    </linearGradient>
    <linearGradient
       inkscape:collect="always"
       id="linearGradient1782">
      <stop
         style="stop-color:#4d4d4d;stop-opacity:1;"
         offset="0"
         id="stop1778" />
      <stop
         style="stop-color:#001800;stop-opacity:1"
         offset="1"
         id="stop1780" />
    </linearGradient>
    <linearGradient
       inkscape:collect="always"
       id="linearGradient10961">
      <stop
         style="stop-color:#1a1a1a;stop-opacity:1;"
         offset="0"
         id="stop10957" />
      <stop
         style="stop-color:#1a1a1a;stop-opacity:0;"
         offset="1"
         id="stop10959" />
    </linearGradient>
    <linearGradient
       inkscape:collect="always"
       xlink:href="#linearGradient10961"
       id="linearGradient10963"
       x1="52.916664"
       y1="120.64999"
       x2="57.149998"
       y2="120.64999"
       gradientUnits="userSpaceOnUse"
       gradientTransform="matrix(1,0,0,1.150685,10.583331,38.505936)" />
    <radialGradient
       inkscape:collect="always"
       xlink:href="#linearGradient1782"
       id="radialGradient1784"
       cx="9.524972"
       cy="63.415062"
       fx="9.524972"
       fy="63.415062"
       r="6.8791645"
       gradientTransform="matrix(0.06225357,-2.7644184,6.4615403,0.16265897,-348.96861,75.344459)"
       gradientUnits="userSpaceOnUse" />
    <radialGradient
       inkscape:collect="always"
       xlink:href="#linearGradient1782"
       id="radialGradient1784-2"
       cx="9.524972"
       cy="63.415062"
       fx="9.524972"
       fy="63.415062"
       r="6.8791647"
       gradientTransform="matrix(0.06225357,-2.7644184,6.4615403,0.16265897,-348.96861,75.344459)"
       gradientUnits="userSpaceOnUse" />
    <radialGradient
       inkscape:collect="always"
       xlink:href="#linearGradient1782"
       id="radialGradient1784-9"
       cx="9.524972"
       cy="63.415062"
       fx="9.524972"
       fy="63.415062"
       r="6.8791647"
       gradientTransform="matrix(0.06225357,-2.7644184,6.4615403,0.16265897,-348.96861,75.344459)"
       gradientUnits="userSpaceOnUse" />
    <radialGradient
       inkscape:collect="always"
       xlink:href="#linearGradient1782"
       id="radialGradient1784-9-9"
       cx="9.524972"
       cy="63.415062"
       fx="9.524972"
       fy="63.415062"
       r="6.8791647"
       gradientTransform="matrix(0.06225357,-2.7644184,6.4615403,0.16265897,-348.96861,75.344459)"
       gradientUnits="userSpaceOnUse" />
    <radialGradient
       inkscape:collect="always"
       xlink:href="#linearGradient1782"
       id="radialGradient1784-2-9"
       cx="9.524972"
       cy="63.415062"
       fx="9.524972"
       fy="63.415062"
       r="6.8791647"
       gradientTransform="matrix(0.06225357,-2.7644184,6.4615403,0.16265897,-348.96861,75.344459)"
       gradientUnits="userSpaceOnUse" />
    <radialGradient
       inkscape:collect="always"
       xlink:href="#linearGradient1782"
       id="radialGradient1784-4"
       cx="9.524972"
       cy="63.415062"
       fx="9.524972"
       fy="63.415062"
       r="6.8791647"
       gradientTransform="matrix(0.06225357,-2.7644184,6.4615403,0.16265897,-348.96861,75.344459)"
       gradientUnits="userSpaceOnUse" />
    <linearGradient
       inkscape:collect="always"
       xlink:href="#linearGradient5016"
       id="linearGradient5020"
       x1="86.783333"
       y1="43.391666"
       x2="82.549995"
       y2="43.391666"
       gradientUnits="userSpaceOnUse" />
    <linearGradient
       inkscape:collect="always"
       xlink:href="#linearGradient5016"
       id="linearGradient5162"
       gradientUnits="userSpaceOnUse"
       x1="86.783333"
       y1="43.391666"
       x2="82.549995"
       y2="43.391666"
       gradientTransform="matrix(-1,0,0,1,186.26666,-5e-7)" />
    <radialGradient
       inkscape:collect="always"
       xlink:href="#linearGradient6059"
       id="radialGradient6225"
       cx="92.97052"
       cy="34.924995"
       fx="92.97052"
       fy="34.924995"
       r="11.641667"
       gradientTransform="matrix(1.1818183,-7.5755423e-5,-1.6549274e-7,0.18181818,-16.740928,28.582043)"
       gradientUnits="userSpaceOnUse" />
    <radialGradient
       inkscape:collect="always"
       xlink:href="#linearGradient6059"
       id="radialGradient6225-0"
       cx="92.97052"
       cy="34.924995"
       fx="92.97052"
       fy="34.924995"
       r="11.641667"
       gradientTransform="matrix(1.1818183,-7.5755423e-5,-1.6549274e-7,0.18181818,-16.740928,28.582043)"
       gradientUnits="userSpaceOnUse" />
    <linearGradient
       inkscape:collect="always"
       xlink:href="#linearGradient5016"
       id="linearGradient7329"
       gradientUnits="userSpaceOnUse"
       x1="86.783333"
       y1="43.391666"
       x2="82.549995"
       y2="43.391666" />
    <linearGradient
       inkscape:collect="always"
       xlink:href="#linearGradient5016"
       id="linearGradient7331"
       gradientUnits="userSpaceOnUse"
       gradientTransform="matrix(-1,0,0,1,186.26666,-5e-7)"
       x1="86.783333"
       y1="43.391666"
       x2="82.549995"
       y2="43.391666" />
    <linearGradient
       inkscape:collect="always"
       xlink:href="#linearGradient11342"
       id="linearGradient11410"
       x1="135.46666"
       y1="26.458332"
       x2="135.46666"
       y2="98.424995"
       gradientUnits="userSpaceOnUse" />
    <linearGradient
       inkscape:collect="always"
       xlink:href="#linearGradient10961"
       id="linearGradient17545"
       gradientUnits="userSpaceOnUse"
       gradientTransform="matrix(-1,0,0,1.150685,260.34999,38.505923)"
       x1="52.916664"
       y1="120.64999"
       x2="57.149998"
       y2="120.64999" />
    <linearGradient
       inkscape:collect="always"
       xlink:href="#linearGradient20876"
       id="linearGradient20878"
       x1="87.841667"
       y1="143.93333"
       x2="84.666664"
       y2="143.93333"
       gradientUnits="userSpaceOnUse"
       gradientTransform="translate(-9.5250044)" />
    <linearGradient
       inkscape:collect="always"
       xlink:href="#linearGradient20876"
       id="linearGradient21212"
       gradientUnits="userSpaceOnUse"
       gradientTransform="translate(-161.92499)"
       x1="87.841667"
       y1="143.93333"
       x2="84.666664"
       y2="143.93333" />
    <linearGradient
       inkscape:collect="always"
       xlink:href="#linearGradient20876"
       id="linearGradient21408"
       gradientUnits="userSpaceOnUse"
       gradientTransform="translate(-5.2916698)"
       x1="87.841667"
       y1="143.93333"
       x2="84.666664"
       y2="143.93333" />
    <linearGradient
       inkscape:collect="always"
       xlink:href="#linearGradient20876"
       id="linearGradient21410"
       gradientUnits="userSpaceOnUse"
       gradientTransform="translate(-166.15832)"
       x1="87.841667"
       y1="143.93333"
       x2="84.666664"
       y2="143.93333" />
    <linearGradient
       inkscape:collect="always"
       xlink:href="#linearGradient20876"
       id="linearGradient21604"
       gradientUnits="userSpaceOnUse"
       gradientTransform="translate(-5.2916698)"
       x1="87.841667"
       y1="143.93333"
       x2="84.666664"
       y2="143.93333" />
    <linearGradient
       inkscape:collect="always"
       xlink:href="#linearGradient20876"
       id="linearGradient21606"
       gradientUnits="userSpaceOnUse"
       gradientTransform="translate(-166.15832)"
       x1="87.841667"
       y1="143.93333"
       x2="84.666664"
       y2="143.93333" />
    <linearGradient
       inkscape:collect="always"
       xlink:href="#linearGradient20876"
       id="linearGradient21720"
       gradientUnits="userSpaceOnUse"
       gradientTransform="translate(-5.2916698)"
       x1="87.841667"
       y1="143.93333"
       x2="84.666664"
       y2="143.93333" />
    <linearGradient
       inkscape:collect="always"
       xlink:href="#linearGradient20876"
       id="linearGradient21722"
       gradientUnits="userSpaceOnUse"
       gradientTransform="translate(-166.15832)"
       x1="87.841667"
       y1="143.93333"
       x2="84.666664"
       y2="143.93333" />
    <linearGradient
       inkscape:collect="always"
       xlink:href="#linearGradient20876"
       id="linearGradient22083"
       gradientUnits="userSpaceOnUse"
       gradientTransform="translate(-5.2916698)"
       x1="87.841667"
       y1="143.93333"
       x2="84.666664"
       y2="143.93333" />
    <linearGradient
       inkscape:collect="always"
       xlink:href="#linearGradient20876"
       id="linearGradient22085"
       gradientUnits="userSpaceOnUse"
       gradientTransform="translate(-166.15832)"
       x1="87.841667"
       y1="143.93333"
       x2="84.666664"
       y2="143.93333" />
  </defs>
  <sodipodi:namedview
     id="base"
     pagecolor="#ffffff"
     bordercolor="#666666"
     borderopacity="1.0"
     inkscape:pageopacity="0"
     inkscape:pageshadow="2"
     inkscape:zoom="0.7"
     inkscape:cx="-52.857143"
     inkscape:cy="167.85714"
     inkscape:document-units="px"
     inkscape:current-layer="g21298-9-9-8"
     inkscape:document-rotation="0"
     showgrid="true"
     units="px"
     inkscape:window-width="2560"
     inkscape:window-height="1343"
     inkscape:window-x="1200"
     inkscape:window-y="240"
     inkscape:window-maximized="1"
     inkscape:snap-grids="true"
     inkscape:pagecheckerboard="0"
     width="768px">
    <inkscape:grid
       type="xygrid"
       id="grid833"
       units="px"
       empspacing="16"
       spacingy="1.0583333"
       spacingx="1.0583333" />
  </sodipodi:namedview>
  <metadata
     id="metadata5">
    <rdf:RDF>
      <cc:Work
         rdf:about="">
        <dc:format>image/svg+xml</dc:format>
        <dc:type
           rdf:resource="http://purl.org/dc/dcmitype/StillImage" />
      </cc:Work>
    </rdf:RDF>
  </metadata>
  <g
     inkscape:label="Body"
     inkscape:groupmode="layer"
     id="layer1">
    <g
       id="g3071">
      <rect
         style="fill:#4d4d4d;fill-opacity:1;stroke:#4d4d4d;stroke-width:1.05833;stroke-linecap:round;stroke-linejoin:round;stroke-miterlimit:4;stroke-dasharray:none;stroke-opacity:0.999962;stop-color:#000000"
         id="rect19760"
         width="12.699999"
         height="18.475475"
         x="55.033352"
         y="49.741665"
         rx="2.1166666"
         ry="2.1166666" />
      <rect
         style="fill:url(#radialGradient1784);fill-opacity:1;stroke:none;stroke-width:1.05833;stroke-linecap:round;stroke-linejoin:round;stroke-miterlimit:4;stroke-dasharray:none;stroke-opacity:0.999962;stop-color:#000000"
         id="rect19760-3"
         width="12.699999"
         height="19.533802"
         x="55.033333"
         y="49.257858"
         rx="2.1166666"
         ry="2.1166666" />
      <g
         id="g1666"
         transform="translate(58.208331)">
        <rect
           style="fill:#000000;fill-opacity:1;stroke:none;stroke-width:0.529165;stroke-linecap:round;stroke-linejoin:round;stroke-opacity:0.999962;stop-color:#000000"
           id="rect5222-7-4-8"
           width="29.633333"
           height="46.566662"
           x="-25.400002"
           y="35.98333"
           rx="2.116668"
           ry="2.1166649" />
        <rect
           style="fill:#1a1a1a;fill-opacity:1;stroke:none;stroke-width:1.05833;stroke-linecap:round;stroke-linejoin:round;stroke-miterlimit:4;stroke-dasharray:none;stroke-opacity:0.999962;stop-color:#000000"
           id="rect12085-0-8-5"
           width="29.381613"
           height="4.2333293"
           x="-25.148279"
           y="57.149998"
           rx="6.5505856e-06"
           ry="2.1166639" />
        <rect
           style="fill:#1a1a1a;fill-opacity:1;stroke:none;stroke-width:1.05833;stroke-linecap:round;stroke-linejoin:round;stroke-miterlimit:4;stroke-dasharray:none;stroke-opacity:0.999962;stop-color:#000000"
           id="rect12085-0-8-5-3"
           width="29.381613"
           height="4.2333293"
           x="-25.400002"
           y="48.683331"
           rx="6.5505856e-06"
           ry="2.1166639" />
        <rect
           style="fill:#1a1a1a;fill-opacity:1;stroke:none;stroke-width:1.05833;stroke-linecap:round;stroke-linejoin:round;stroke-miterlimit:4;stroke-dasharray:none;stroke-opacity:0.999962;stop-color:#000000"
           id="rect12085-0-8-5-3-7"
           width="29.381613"
           height="2.7399747"
           x="-25.400002"
           y="41.710022"
           rx="6.5505856e-06"
           ry="2.1166639" />
        <rect
           style="fill:#1a1a1a;fill-opacity:1;stroke:none;stroke-width:1.05833;stroke-linecap:round;stroke-linejoin:round;stroke-miterlimit:4;stroke-dasharray:none;stroke-opacity:0.999962;stop-color:#000000"
           id="rect12085-0-8-5-3-7-3"
           width="29.381613"
           height="2.7399747"
           x="-25.400002"
           y="74.083336"
           rx="6.5505856e-06"
           ry="2.1166639" />
        <rect
           style="fill:#1a1a1a;fill-opacity:1;stroke:none;stroke-width:1.05833;stroke-linecap:round;stroke-linejoin:round;stroke-miterlimit:4;stroke-dasharray:none;stroke-opacity:0.999962;stop-color:#000000"
           id="rect12085-0-8-5-6"
           width="29.381613"
           height="4.2333293"
           x="-25.400002"
           y="65.616669"
           rx="6.5505856e-06"
           ry="2.1166639" />
        <path
           style="fill:#1a1a1a;fill-opacity:1;stroke:none;stroke-width:1.05833;stroke-linecap:round;stroke-linejoin:round;stroke-miterlimit:4;stroke-dasharray:none;stroke-opacity:0.999962;stop-color:#000000"
           d="m -23.283335,82.549996 c 0,0 -1.058334,-0.647095 -2.116666,-2.116667 H 4.2333309 c 0,1.058333 -1.0583333,2.116667 -2.1166666,2.116667 z"
           id="path12834-3-4-3"
           sodipodi:nodetypes="ccccc" />
        <path
           style="fill:#1a1a1a;fill-opacity:1;stroke:none;stroke-width:1.05833;stroke-linecap:round;stroke-linejoin:round;stroke-miterlimit:4;stroke-dasharray:none;stroke-opacity:0.999962;stop-color:#000000"
           d="m -23.283335,35.983331 c -1.058333,0 -2.116666,1.058333 -2.116666,2.116667 H 4.2333317 c 0,-1.058333 -1.0583333,-2.116667 -2.1166666,-2.116667 z"
           id="path12834-3-4-3-6"
           sodipodi:nodetypes="ccccc" />
      </g>
    </g>
    <g
       id="g3071-2"
       transform="translate(-2.0298196e-5,51.374523)">
      <rect
         style="fill:#4d4d4d;fill-opacity:1;stroke:#4d4d4d;stroke-width:1.05833;stroke-linecap:round;stroke-linejoin:round;stroke-miterlimit:4;stroke-dasharray:none;stroke-opacity:0.999962;stop-color:#000000"
         id="rect19760-7"
         width="12.699999"
         height="18.475475"
         x="55.033352"
         y="49.741665"
         rx="2.1166666"
         ry="2.1166666" />
      <rect
         style="fill:url(#radialGradient1784-2);fill-opacity:1;stroke:none;stroke-width:1.05833;stroke-linecap:round;stroke-linejoin:round;stroke-miterlimit:4;stroke-dasharray:none;stroke-opacity:0.999962;stop-color:#000000"
         id="rect19760-3-0"
         width="12.699999"
         height="19.533802"
         x="55.033333"
         y="49.257858"
         rx="2.1166666"
         ry="2.1166666" />
      <g
         id="g1666-9"
         transform="translate(58.208331)">
        <rect
           style="fill:#000000;fill-opacity:1;stroke:none;stroke-width:0.529165;stroke-linecap:round;stroke-linejoin:round;stroke-opacity:0.999962;stop-color:#000000"
           id="rect5222-7-4-8-3"
           width="29.633333"
           height="46.566662"
           x="-25.400002"
           y="35.98333"
           rx="2.116668"
           ry="2.1166649" />
        <rect
           style="fill:#1a1a1a;fill-opacity:1;stroke:none;stroke-width:1.05833;stroke-linecap:round;stroke-linejoin:round;stroke-miterlimit:4;stroke-dasharray:none;stroke-opacity:0.999962;stop-color:#000000"
           id="rect12085-0-8-5-60"
           width="29.381613"
           height="4.2333293"
           x="-25.148279"
           y="57.149998"
           rx="6.5505856e-06"
           ry="2.1166639" />
        <rect
           style="fill:#1a1a1a;fill-opacity:1;stroke:none;stroke-width:1.05833;stroke-linecap:round;stroke-linejoin:round;stroke-miterlimit:4;stroke-dasharray:none;stroke-opacity:0.999962;stop-color:#000000"
           id="rect12085-0-8-5-3-6"
           width="29.381613"
           height="4.2333293"
           x="-25.400002"
           y="48.683331"
           rx="6.5505856e-06"
           ry="2.1166639" />
        <rect
           style="fill:#1a1a1a;fill-opacity:1;stroke:none;stroke-width:1.05833;stroke-linecap:round;stroke-linejoin:round;stroke-miterlimit:4;stroke-dasharray:none;stroke-opacity:0.999962;stop-color:#000000"
           id="rect12085-0-8-5-3-7-2"
           width="29.381613"
           height="2.7399747"
           x="-25.400002"
           y="41.710022"
           rx="6.5505856e-06"
           ry="2.1166639" />
        <rect
           style="fill:#1a1a1a;fill-opacity:1;stroke:none;stroke-width:1.05833;stroke-linecap:round;stroke-linejoin:round;stroke-miterlimit:4;stroke-dasharray:none;stroke-opacity:0.999962;stop-color:#000000"
           id="rect12085-0-8-5-3-7-3-6"
           width="29.381613"
           height="2.7399747"
           x="-25.400002"
           y="74.083336"
           rx="6.5505856e-06"
           ry="2.1166639" />
        <rect
           style="fill:#1a1a1a;fill-opacity:1;stroke:none;stroke-width:1.05833;stroke-linecap:round;stroke-linejoin:round;stroke-miterlimit:4;stroke-dasharray:none;stroke-opacity:0.999962;stop-color:#000000"
           id="rect12085-0-8-5-6-1"
           width="29.381613"
           height="4.2333293"
           x="-25.400002"
           y="65.616669"
           rx="6.5505856e-06"
           ry="2.1166639" />
        <path
           style="fill:#1a1a1a;fill-opacity:1;stroke:none;stroke-width:1.05833;stroke-linecap:round;stroke-linejoin:round;stroke-miterlimit:4;stroke-dasharray:none;stroke-opacity:0.999962;stop-color:#000000"
           d="m -23.283335,82.549996 c 0,0 -1.058334,-0.647095 -2.116666,-2.116667 H 4.2333309 c 0,1.058333 -1.0583333,2.116667 -2.1166666,2.116667 z"
           id="path12834-3-4-3-8"
           sodipodi:nodetypes="ccccc" />
        <path
           style="fill:#1a1a1a;fill-opacity:1;stroke:none;stroke-width:1.05833;stroke-linecap:round;stroke-linejoin:round;stroke-miterlimit:4;stroke-dasharray:none;stroke-opacity:0.999962;stop-color:#000000"
           d="m -23.283335,35.983331 c -1.058333,0 -2.116666,1.058333 -2.116666,2.116667 H 4.2333317 c 0,-1.058333 -1.0583333,-2.116667 -2.1166666,-2.116667 z"
           id="path12834-3-4-3-6-7"
           sodipodi:nodetypes="ccccc" />
      </g>
    </g>
    <g
       id="g3071-23"
       transform="translate(-2.0298196e-5,152.97452)">
      <rect
         style="fill:#4d4d4d;fill-opacity:1;stroke:#4d4d4d;stroke-width:1.05833;stroke-linecap:round;stroke-linejoin:round;stroke-miterlimit:4;stroke-dasharray:none;stroke-opacity:0.999962;stop-color:#000000"
         id="rect19760-75"
         width="12.699999"
         height="18.475475"
         x="55.033352"
         y="49.741665"
         rx="2.1166666"
         ry="2.1166666" />
      <rect
         style="fill:url(#radialGradient1784-9);fill-opacity:1;stroke:none;stroke-width:1.05833;stroke-linecap:round;stroke-linejoin:round;stroke-miterlimit:4;stroke-dasharray:none;stroke-opacity:0.999962;stop-color:#000000"
         id="rect19760-3-9"
         width="12.699999"
         height="19.533802"
         x="55.033333"
         y="49.257858"
         rx="2.1166666"
         ry="2.1166666" />
      <g
         id="g1666-2"
         transform="translate(58.208331)">
        <rect
           style="fill:#000000;fill-opacity:1;stroke:none;stroke-width:0.529165;stroke-linecap:round;stroke-linejoin:round;stroke-opacity:0.999962;stop-color:#000000"
           id="rect5222-7-4-8-2"
           width="29.633333"
           height="46.566662"
           x="-25.400002"
           y="35.98333"
           rx="2.116668"
           ry="2.1166649" />
        <rect
           style="fill:#1a1a1a;fill-opacity:1;stroke:none;stroke-width:1.05833;stroke-linecap:round;stroke-linejoin:round;stroke-miterlimit:4;stroke-dasharray:none;stroke-opacity:0.999962;stop-color:#000000"
           id="rect12085-0-8-5-8"
           width="29.381613"
           height="4.2333293"
           x="-25.148279"
           y="57.149998"
           rx="6.5505856e-06"
           ry="2.1166639" />
        <rect
           style="fill:#1a1a1a;fill-opacity:1;stroke:none;stroke-width:1.05833;stroke-linecap:round;stroke-linejoin:round;stroke-miterlimit:4;stroke-dasharray:none;stroke-opacity:0.999962;stop-color:#000000"
           id="rect12085-0-8-5-3-9"
           width="29.381613"
           height="4.2333293"
           x="-25.400002"
           y="48.683331"
           rx="6.5505856e-06"
           ry="2.1166639" />
        <rect
           style="fill:#1a1a1a;fill-opacity:1;stroke:none;stroke-width:1.05833;stroke-linecap:round;stroke-linejoin:round;stroke-miterlimit:4;stroke-dasharray:none;stroke-opacity:0.999962;stop-color:#000000"
           id="rect12085-0-8-5-3-7-7"
           width="29.381613"
           height="2.7399747"
           x="-25.400002"
           y="41.710022"
           rx="6.5505856e-06"
           ry="2.1166639" />
        <rect
           style="fill:#1a1a1a;fill-opacity:1;stroke:none;stroke-width:1.05833;stroke-linecap:round;stroke-linejoin:round;stroke-miterlimit:4;stroke-dasharray:none;stroke-opacity:0.999962;stop-color:#000000"
           id="rect12085-0-8-5-3-7-3-3"
           width="29.381613"
           height="2.7399747"
           x="-25.400002"
           y="74.083336"
           rx="6.5505856e-06"
           ry="2.1166639" />
        <rect
           style="fill:#1a1a1a;fill-opacity:1;stroke:none;stroke-width:1.05833;stroke-linecap:round;stroke-linejoin:round;stroke-miterlimit:4;stroke-dasharray:none;stroke-opacity:0.999962;stop-color:#000000"
           id="rect12085-0-8-5-6-6"
           width="29.381613"
           height="4.2333293"
           x="-25.400002"
           y="65.616669"
           rx="6.5505856e-06"
           ry="2.1166639" />
        <path
           style="fill:#1a1a1a;fill-opacity:1;stroke:none;stroke-width:1.05833;stroke-linecap:round;stroke-linejoin:round;stroke-miterlimit:4;stroke-dasharray:none;stroke-opacity:0.999962;stop-color:#000000"
           d="m -23.283335,82.549996 c 0,0 -1.058334,-0.647095 -2.116666,-2.116667 H 4.2333309 c 0,1.058333 -1.0583333,2.116667 -2.1166666,2.116667 z"
           id="path12834-3-4-3-1"
           sodipodi:nodetypes="ccccc" />
        <path
           style="fill:#1a1a1a;fill-opacity:1;stroke:none;stroke-width:1.05833;stroke-linecap:round;stroke-linejoin:round;stroke-miterlimit:4;stroke-dasharray:none;stroke-opacity:0.999962;stop-color:#000000"
           d="m -23.283335,35.983331 c -1.058333,0 -2.116666,1.058333 -2.116666,2.116667 H 4.2333317 c 0,-1.058333 -1.0583333,-2.116667 -2.1166666,-2.116667 z"
           id="path12834-3-4-3-6-2"
           sodipodi:nodetypes="ccccc" />
      </g>
    </g>
    <g
       id="g3071-7"
       transform="matrix(-1,0,0,1,270.93333,-7.4977539e-6)">
      <rect
         style="fill:#4d4d4d;fill-opacity:1;stroke:#4d4d4d;stroke-width:1.05833;stroke-linecap:round;stroke-linejoin:round;stroke-miterlimit:4;stroke-dasharray:none;stroke-opacity:0.999962;stop-color:#000000"
         id="rect19760-8"
         width="12.699999"
         height="18.475475"
         x="55.033352"
         y="49.741665"
         rx="2.1166666"
         ry="2.1166666" />
      <rect
         style="fill:url(#radialGradient1784-4);fill-opacity:1;stroke:none;stroke-width:1.05833;stroke-linecap:round;stroke-linejoin:round;stroke-miterlimit:4;stroke-dasharray:none;stroke-opacity:0.999962;stop-color:#000000"
         id="rect19760-3-4"
         width="12.699999"
         height="19.533802"
         x="55.033333"
         y="49.257858"
         rx="2.1166666"
         ry="2.1166666" />
      <g
         id="g1666-5"
         transform="translate(58.208331)">
        <rect
           style="fill:#000000;fill-opacity:1;stroke:none;stroke-width:0.529165;stroke-linecap:round;stroke-linejoin:round;stroke-opacity:0.999962;stop-color:#000000"
           id="rect5222-7-4-8-0"
           width="29.633333"
           height="46.566662"
           x="-25.400002"
           y="35.98333"
           rx="2.116668"
           ry="2.1166649" />
        <rect
           style="fill:#1a1a1a;fill-opacity:1;stroke:none;stroke-width:1.05833;stroke-linecap:round;stroke-linejoin:round;stroke-miterlimit:4;stroke-dasharray:none;stroke-opacity:0.999962;stop-color:#000000"
           id="rect12085-0-8-5-36"
           width="29.381613"
           height="4.2333293"
           x="-25.148279"
           y="57.149998"
           rx="6.5505856e-06"
           ry="2.1166639" />
        <rect
           style="fill:#1a1a1a;fill-opacity:1;stroke:none;stroke-width:1.05833;stroke-linecap:round;stroke-linejoin:round;stroke-miterlimit:4;stroke-dasharray:none;stroke-opacity:0.999962;stop-color:#000000"
           id="rect12085-0-8-5-3-1"
           width="29.381613"
           height="4.2333293"
           x="-25.400002"
           y="48.683331"
           rx="6.5505856e-06"
           ry="2.1166639" />
        <rect
           style="fill:#1a1a1a;fill-opacity:1;stroke:none;stroke-width:1.05833;stroke-linecap:round;stroke-linejoin:round;stroke-miterlimit:4;stroke-dasharray:none;stroke-opacity:0.999962;stop-color:#000000"
           id="rect12085-0-8-5-3-7-0"
           width="29.381613"
           height="2.7399747"
           x="-25.400002"
           y="41.710022"
           rx="6.5505856e-06"
           ry="2.1166639" />
        <rect
           style="fill:#1a1a1a;fill-opacity:1;stroke:none;stroke-width:1.05833;stroke-linecap:round;stroke-linejoin:round;stroke-miterlimit:4;stroke-dasharray:none;stroke-opacity:0.999962;stop-color:#000000"
           id="rect12085-0-8-5-3-7-3-63"
           width="29.381613"
           height="2.7399747"
           x="-25.400002"
           y="74.083336"
           rx="6.5505856e-06"
           ry="2.1166639" />
        <rect
           style="fill:#1a1a1a;fill-opacity:1;stroke:none;stroke-width:1.05833;stroke-linecap:round;stroke-linejoin:round;stroke-miterlimit:4;stroke-dasharray:none;stroke-opacity:0.999962;stop-color:#000000"
           id="rect12085-0-8-5-6-2"
           width="29.381613"
           height="4.2333293"
           x="-25.400002"
           y="65.616669"
           rx="6.5505856e-06"
           ry="2.1166639" />
        <path
           style="fill:#1a1a1a;fill-opacity:1;stroke:none;stroke-width:1.05833;stroke-linecap:round;stroke-linejoin:round;stroke-miterlimit:4;stroke-dasharray:none;stroke-opacity:0.999962;stop-color:#000000"
           d="m -23.283335,82.549996 c 0,0 -1.058334,-0.647095 -2.116666,-2.116667 H 4.2333309 c 0,1.058333 -1.0583333,2.116667 -2.1166666,2.116667 z"
           id="path12834-3-4-3-0"
           sodipodi:nodetypes="ccccc" />
        <path
           style="fill:#1a1a1a;fill-opacity:1;stroke:none;stroke-width:1.05833;stroke-linecap:round;stroke-linejoin:round;stroke-miterlimit:4;stroke-dasharray:none;stroke-opacity:0.999962;stop-color:#000000"
           d="m -23.283335,35.983331 c -1.058333,0 -2.116666,1.058333 -2.116666,2.116667 H 4.2333317 c 0,-1.058333 -1.0583333,-2.116667 -2.1166666,-2.116667 z"
           id="path12834-3-4-3-6-6"
           sodipodi:nodetypes="ccccc" />
      </g>
    </g>
    <g
       id="g3071-2-1"
       transform="matrix(-1,0,0,1,270.93335,51.374516)">
      <rect
         style="fill:#4d4d4d;fill-opacity:1;stroke:#4d4d4d;stroke-width:1.05833;stroke-linecap:round;stroke-linejoin:round;stroke-miterlimit:4;stroke-dasharray:none;stroke-opacity:0.999962;stop-color:#000000"
         id="rect19760-7-5"
         width="12.699999"
         height="18.475475"
         x="55.033352"
         y="49.741665"
         rx="2.1166666"
         ry="2.1166666" />
      <rect
         style="fill:url(#radialGradient1784-2-9);fill-opacity:1;stroke:none;stroke-width:1.05833;stroke-linecap:round;stroke-linejoin:round;stroke-miterlimit:4;stroke-dasharray:none;stroke-opacity:0.999962;stop-color:#000000"
         id="rect19760-3-0-5"
         width="12.699999"
         height="19.533802"
         x="55.033333"
         y="49.257858"
         rx="2.1166666"
         ry="2.1166666" />
      <g
         id="g1666-9-4"
         transform="translate(58.208331)">
        <rect
           style="fill:#000000;fill-opacity:1;stroke:none;stroke-width:0.529165;stroke-linecap:round;stroke-linejoin:round;stroke-opacity:0.999962;stop-color:#000000"
           id="rect5222-7-4-8-3-7"
           width="29.633333"
           height="46.566662"
           x="-25.400002"
           y="35.98333"
           rx="2.116668"
           ry="2.1166649" />
        <rect
           style="fill:#1a1a1a;fill-opacity:1;stroke:none;stroke-width:1.05833;stroke-linecap:round;stroke-linejoin:round;stroke-miterlimit:4;stroke-dasharray:none;stroke-opacity:0.999962;stop-color:#000000"
           id="rect12085-0-8-5-60-6"
           width="29.381613"
           height="4.2333293"
           x="-25.148279"
           y="57.149998"
           rx="6.5505856e-06"
           ry="2.1166639" />
        <rect
           style="fill:#1a1a1a;fill-opacity:1;stroke:none;stroke-width:1.05833;stroke-linecap:round;stroke-linejoin:round;stroke-miterlimit:4;stroke-dasharray:none;stroke-opacity:0.999962;stop-color:#000000"
           id="rect12085-0-8-5-3-6-5"
           width="29.381613"
           height="4.2333293"
           x="-25.400002"
           y="48.683331"
           rx="6.5505856e-06"
           ry="2.1166639" />
        <rect
           style="fill:#1a1a1a;fill-opacity:1;stroke:none;stroke-width:1.05833;stroke-linecap:round;stroke-linejoin:round;stroke-miterlimit:4;stroke-dasharray:none;stroke-opacity:0.999962;stop-color:#000000"
           id="rect12085-0-8-5-3-7-2-6"
           width="29.381613"
           height="2.7399747"
           x="-25.400002"
           y="41.710022"
           rx="6.5505856e-06"
           ry="2.1166639" />
        <rect
           style="fill:#1a1a1a;fill-opacity:1;stroke:none;stroke-width:1.05833;stroke-linecap:round;stroke-linejoin:round;stroke-miterlimit:4;stroke-dasharray:none;stroke-opacity:0.999962;stop-color:#000000"
           id="rect12085-0-8-5-3-7-3-6-9"
           width="29.381613"
           height="2.7399747"
           x="-25.400002"
           y="74.083336"
           rx="6.5505856e-06"
           ry="2.1166639" />
        <rect
           style="fill:#1a1a1a;fill-opacity:1;stroke:none;stroke-width:1.05833;stroke-linecap:round;stroke-linejoin:round;stroke-miterlimit:4;stroke-dasharray:none;stroke-opacity:0.999962;stop-color:#000000"
           id="rect12085-0-8-5-6-1-3"
           width="29.381613"
           height="4.2333293"
           x="-25.400002"
           y="65.616669"
           rx="6.5505856e-06"
           ry="2.1166639" />
        <path
           style="fill:#1a1a1a;fill-opacity:1;stroke:none;stroke-width:1.05833;stroke-linecap:round;stroke-linejoin:round;stroke-miterlimit:4;stroke-dasharray:none;stroke-opacity:0.999962;stop-color:#000000"
           d="m -23.283335,82.549996 c 0,0 -1.058334,-0.647095 -2.116666,-2.116667 H 4.2333309 c 0,1.058333 -1.0583333,2.116667 -2.1166666,2.116667 z"
           id="path12834-3-4-3-8-7"
           sodipodi:nodetypes="ccccc" />
        <path
           style="fill:#1a1a1a;fill-opacity:1;stroke:none;stroke-width:1.05833;stroke-linecap:round;stroke-linejoin:round;stroke-miterlimit:4;stroke-dasharray:none;stroke-opacity:0.999962;stop-color:#000000"
           d="m -23.283335,35.983331 c -1.058333,0 -2.116666,1.058333 -2.116666,2.116667 H 4.2333317 c 0,-1.058333 -1.0583333,-2.116667 -2.1166666,-2.116667 z"
           id="path12834-3-4-3-6-7-4"
           sodipodi:nodetypes="ccccc" />
      </g>
    </g>
    <g
       id="g3071-23-5"
       transform="matrix(-1,0,0,1,270.93335,152.97452)">
      <rect
         style="fill:#4d4d4d;fill-opacity:1;stroke:#4d4d4d;stroke-width:1.05833;stroke-linecap:round;stroke-linejoin:round;stroke-miterlimit:4;stroke-dasharray:none;stroke-opacity:0.999962;stop-color:#000000"
         id="rect19760-75-2"
         width="12.699999"
         height="18.475475"
         x="55.033352"
         y="49.741665"
         rx="2.1166666"
         ry="2.1166666" />
      <rect
         style="fill:url(#radialGradient1784-9-9);fill-opacity:1;stroke:none;stroke-width:1.05833;stroke-linecap:round;stroke-linejoin:round;stroke-miterlimit:4;stroke-dasharray:none;stroke-opacity:0.999962;stop-color:#000000"
         id="rect19760-3-9-5"
         width="12.699999"
         height="19.533802"
         x="55.033333"
         y="49.257858"
         rx="2.1166666"
         ry="2.1166666" />
      <g
         id="g1666-2-4"
         transform="translate(58.208331)">
        <rect
           style="fill:#000000;fill-opacity:1;stroke:none;stroke-width:0.529165;stroke-linecap:round;stroke-linejoin:round;stroke-opacity:0.999962;stop-color:#000000"
           id="rect5222-7-4-8-2-7"
           width="29.633333"
           height="46.566662"
           x="-25.400002"
           y="35.98333"
           rx="2.116668"
           ry="2.1166649" />
        <rect
           style="fill:#1a1a1a;fill-opacity:1;stroke:none;stroke-width:1.05833;stroke-linecap:round;stroke-linejoin:round;stroke-miterlimit:4;stroke-dasharray:none;stroke-opacity:0.999962;stop-color:#000000"
           id="rect12085-0-8-5-8-4"
           width="29.381613"
           height="4.2333293"
           x="-25.148279"
           y="57.149998"
           rx="6.5505856e-06"
           ry="2.1166639" />
        <rect
           style="fill:#1a1a1a;fill-opacity:1;stroke:none;stroke-width:1.05833;stroke-linecap:round;stroke-linejoin:round;stroke-miterlimit:4;stroke-dasharray:none;stroke-opacity:0.999962;stop-color:#000000"
           id="rect12085-0-8-5-3-9-4"
           width="29.381613"
           height="4.2333293"
           x="-25.400002"
           y="48.683331"
           rx="6.5505856e-06"
           ry="2.1166639" />
        <rect
           style="fill:#1a1a1a;fill-opacity:1;stroke:none;stroke-width:1.05833;stroke-linecap:round;stroke-linejoin:round;stroke-miterlimit:4;stroke-dasharray:none;stroke-opacity:0.999962;stop-color:#000000"
           id="rect12085-0-8-5-3-7-7-3"
           width="29.381613"
           height="2.7399747"
           x="-25.400002"
           y="41.710022"
           rx="6.5505856e-06"
           ry="2.1166639" />
        <rect
           style="fill:#1a1a1a;fill-opacity:1;stroke:none;stroke-width:1.05833;stroke-linecap:round;stroke-linejoin:round;stroke-miterlimit:4;stroke-dasharray:none;stroke-opacity:0.999962;stop-color:#000000"
           id="rect12085-0-8-5-3-7-3-3-0"
           width="29.381613"
           height="2.7399747"
           x="-25.400002"
           y="74.083336"
           rx="6.5505856e-06"
           ry="2.1166639" />
        <rect
           style="fill:#1a1a1a;fill-opacity:1;stroke:none;stroke-width:1.05833;stroke-linecap:round;stroke-linejoin:round;stroke-miterlimit:4;stroke-dasharray:none;stroke-opacity:0.999962;stop-color:#000000"
           id="rect12085-0-8-5-6-6-7"
           width="29.381613"
           height="4.2333293"
           x="-25.400002"
           y="65.616669"
           rx="6.5505856e-06"
           ry="2.1166639" />
        <path
           style="fill:#1a1a1a;fill-opacity:1;stroke:none;stroke-width:1.05833;stroke-linecap:round;stroke-linejoin:round;stroke-miterlimit:4;stroke-dasharray:none;stroke-opacity:0.999962;stop-color:#000000"
           d="m -23.283335,82.549996 c 0,0 -1.058334,-0.647095 -2.116666,-2.116667 H 4.2333309 c 0,1.058333 -1.0583333,2.116667 -2.1166666,2.116667 z"
           id="path12834-3-4-3-1-8"
           sodipodi:nodetypes="ccccc" />
        <path
           style="fill:#1a1a1a;fill-opacity:1;stroke:none;stroke-width:1.05833;stroke-linecap:round;stroke-linejoin:round;stroke-miterlimit:4;stroke-dasharray:none;stroke-opacity:0.999962;stop-color:#000000"
           d="m -23.283335,35.983331 c -1.058333,0 -2.116666,1.058333 -2.116666,2.116667 H 4.2333317 c 0,-1.058333 -1.0583333,-2.116667 -2.1166666,-2.116667 z"
           id="path12834-3-4-3-6-2-6"
           sodipodi:nodetypes="ccccc" />
      </g>
    </g>
    <path
       style="fill:#d40000;fill-opacity:1;stroke:#000000;stroke-width:1.05833;stroke-linecap:round;stroke-linejoin:round;stroke-miterlimit:4;stroke-dasharray:none;stroke-opacity:0.999962;stop-color:#000000"
       d="m 194.73333,16.933333 12.7,12.699999 V 245.53332 l -12.7,12.7 H 76.199997 l -12.699999,-12.7 V 29.633332 L 76.199997,16.933333 Z"
       id="path5595"
       sodipodi:nodetypes="ccccccccc" />
  </g>
  <g
     inkscape:groupmode="layer"
     id="layer2"
     inkscape:label="Top">
    <path
       style="fill:url(#linearGradient11410);fill-opacity:1;stroke:none;stroke-width:1.05833;stroke-linecap:round;stroke-linejoin:bevel;stroke-miterlimit:4;stroke-dasharray:none;stroke-opacity:0.996078;stop-color:#000000"
       d="m 77.258331,26.458332 -7.408333,7.408334 10e-7,65.616666 131.233331,-1.058333 V 33.866666 l -7.40834,-7.408334"
       id="path11306"
       sodipodi:nodetypes="cccccc" />
    <path
       style="fill:#ff0000;fill-opacity:1;stroke:#000000;stroke-width:1.05833;stroke-linecap:round;stroke-linejoin:round;stroke-miterlimit:4;stroke-dasharray:none;stroke-opacity:0.999962;stop-color:#000000"
       d="M 201.08333,98.424997 V 232.83333 H 69.849998 v -133.35 z"
       id="path5595-5"
       sodipodi:nodetypes="ccccc" />
    <path
       style="fill:url(#linearGradient10963);fill-opacity:1;stroke:none;stroke-width:1.05833;stroke-linecap:round;stroke-linejoin:round;stroke-miterlimit:4;stroke-dasharray:none;stroke-opacity:0.999962;stop-color:#000000"
       d="m 63.499998,29.633332 4.233333,-4.233333 V 249.76666 l -4.23334,-4.23332"
       id="path9631-5"
       sodipodi:nodetypes="cccc" />
    <path
       style="fill:url(#linearGradient17545);fill-opacity:1;stroke:none;stroke-width:1.05833;stroke-linecap:round;stroke-linejoin:round;stroke-miterlimit:4;stroke-dasharray:none;stroke-opacity:0.999962;stop-color:#000000"
       d="m 207.43332,29.633319 -4.23333,-4.233333 V 249.76665 l 4.23334,-4.23332"
       id="path9631-5-1"
       sodipodi:nodetypes="cccc" />
    <rect
       style="fill:none;fill-opacity:1;stroke:#800000;stroke-width:1.05833;stroke-linecap:round;stroke-linejoin:round;stroke-miterlimit:4;stroke-dasharray:none;stroke-opacity:0.999962;stop-color:#000000"
       id="rect17160-5"
       width="33.866653"
       height="33.866665"
       x="91.016678"
       y="130.175"
       rx="2.1166661"
       ry="2.1166677" />
    <rect
       style="fill:none;fill-opacity:1;stroke:#800000;stroke-width:1.05833;stroke-linecap:round;stroke-linejoin:round;stroke-miterlimit:4;stroke-dasharray:none;stroke-opacity:0.999962;stop-color:#000000"
       id="rect17160-6"
       width="33.866661"
       height="33.866669"
       x="91.016663"
       y="176.74167"
       rx="2.1166661"
       ry="2.1166677" />
    <rect
       style="fill:none;fill-opacity:1;stroke:#800000;stroke-width:1.05833;stroke-linecap:round;stroke-linejoin:round;stroke-miterlimit:4;stroke-dasharray:none;stroke-opacity:0.999962;stop-color:#000000"
       id="rect17160-5-9"
       width="33.866665"
       height="33.866665"
       x="146.04999"
       y="130.175"
       rx="2.1166661"
       ry="2.1166677" />
    <rect
       style="fill:none;fill-opacity:1;stroke:#800000;stroke-width:1.05833;stroke-linecap:round;stroke-linejoin:round;stroke-miterlimit:4;stroke-dasharray:none;stroke-opacity:0.999962;stop-color:#000000"
       id="rect17160-6-4"
       width="33.866665"
       height="33.866676"
       x="146.04999"
       y="176.74167"
       rx="2.1166661"
       ry="2.1166677" />
    <rect
       style="fill:#001800;fill-opacity:1;stroke:none;stroke-width:0.529167;stroke-linecap:round;stroke-linejoin:bevel;stroke-opacity:0.996078;stop-color:#000000"
       id="rect4084"
       width="33.866665"
       height="12.699998"
       x="91.01667"
       y="102.65833"
       rx="1.0583352"
       ry="1.0583305" />
    <rect
       style="fill:#001800;fill-opacity:1;stroke:none;stroke-width:0.529167;stroke-linecap:round;stroke-linejoin:bevel;stroke-opacity:0.996078;stop-color:#000000"
       id="rect4086"
       width="33.866665"
       height="12.699998"
       x="146.04999"
       y="102.65833"
       rx="1.0583287"
       ry="1.0583305" />
    <path
       id="rect4088"
       style="fill:#001800;stroke-width:0.529167;stroke-linecap:round;stroke-linejoin:bevel;stroke-opacity:0.996078;stop-color:#000000"
       d="m 95.250006,76.199998 h 6.349984 l 3.17501,3.174999 h 6.35 l 3.175,-3.174999 h 6.35 l 4.23333,3.175001 v 8.466665 l -9.525,2.116667 -4.23333,3.174999 h -6.35001 l -3.72651,-3.174999 -10.031807,-2.116667 10e-7,-8.466665 z"
       sodipodi:nodetypes="ccccccccccccccc" />
    <g
       id="g7166">
      <path
         style="fill:url(#radialGradient6225);fill-opacity:1;stroke:none;stroke-width:0.529167;stroke-linecap:round;stroke-linejoin:bevel;stroke-opacity:0.996078;stop-color:#000000"
         d="M 81.491666,33.866666 H 104.775 l -5.291668,2.116667 h -12.7 l -5.291666,-2.116667"
         id="path5957" />
      <path
         style="fill:#ff0000;fill-opacity:1;stroke:#000000;stroke-width:0.529167;stroke-linecap:round;stroke-linejoin:bevel;stroke-opacity:0.996078;stop-color:#000000"
         d="M 86.783331,52.916666 V 35.983333 H 99.48333 v 16.933333"
         id="path4205"
         sodipodi:nodetypes="cccc" />
      <path
         style="fill:url(#linearGradient5020);fill-opacity:1;stroke:none;stroke-width:0.529167;stroke-linecap:round;stroke-linejoin:bevel;stroke-opacity:0.996078;stop-color:#000000"
         d="m 86.783331,35.983332 -5.291667,-2.116666 v 14.816666 l 5.291667,4.233333"
         id="path4273"
         sodipodi:nodetypes="cccc" />
      <path
         style="fill:none;fill-opacity:1;stroke:#000000;stroke-width:0.529167;stroke-linecap:round;stroke-linejoin:bevel;stroke-opacity:0.996078;stop-color:#000000"
         d="M 86.783331,35.983332 81.491664,33.866665 V 48.683332"
         id="path4273-49"
         sodipodi:nodetypes="ccc" />
      <path
         style="fill:url(#linearGradient5162);fill-opacity:1;stroke:none;stroke-width:0.529167;stroke-linecap:round;stroke-linejoin:bevel;stroke-opacity:0.996078;stop-color:#000000"
         d="m 99.48333,35.983332 5.29167,-2.116666 v 14.816666 l -5.29167,4.233333"
         id="path4273-4"
         sodipodi:nodetypes="cccc" />
      <path
         style="fill:none;fill-opacity:1;stroke:#000000;stroke-width:0.529167;stroke-linecap:round;stroke-linejoin:bevel;stroke-opacity:0.996078;stop-color:#000000"
         d="M 99.48333,35.983333 104.775,33.866666 V 48.683332"
         id="path4273-49-2"
         sodipodi:nodetypes="ccc" />
      <path
         style="fill:none;fill-opacity:1;stroke:#800000;stroke-width:0.529167;stroke-linecap:round;stroke-linejoin:bevel;stroke-opacity:0.996078;stop-color:#000000"
         d="m 81.491664,48.683332 5.291667,4.233333 12.700001,10e-7 5.291668,-4.233333"
         id="path6963"
         sodipodi:nodetypes="cccc" />
    </g>
    <g
       id="g7166-6"
       transform="translate(83.60833)">
      <path
         style="fill:url(#radialGradient6225-0);fill-opacity:1;stroke:none;stroke-width:0.529167;stroke-linecap:round;stroke-linejoin:bevel;stroke-opacity:0.996078;stop-color:#000000"
         d="M 81.491666,33.866666 H 104.775 l -5.291668,2.116667 h -12.7 l -5.291666,-2.116667"
         id="path5957-6" />
      <path
         style="fill:#ff0000;fill-opacity:1;stroke:#000000;stroke-width:0.529167;stroke-linecap:round;stroke-linejoin:bevel;stroke-opacity:0.996078;stop-color:#000000"
         d="M 86.783331,52.916666 V 35.983333 H 99.48333 v 16.933333"
         id="path4205-4"
         sodipodi:nodetypes="cccc" />
      <path
         style="fill:url(#linearGradient7329);fill-opacity:1;stroke:none;stroke-width:0.529167;stroke-linecap:round;stroke-linejoin:bevel;stroke-opacity:0.996078;stop-color:#000000"
         d="m 86.783331,35.983332 -5.291667,-2.116666 v 14.816666 l 5.291667,4.233333"
         id="path4273-9"
         sodipodi:nodetypes="cccc" />
      <path
         style="fill:none;fill-opacity:1;stroke:#000000;stroke-width:0.529167;stroke-linecap:round;stroke-linejoin:bevel;stroke-opacity:0.996078;stop-color:#000000"
         d="M 86.783331,35.983332 81.491664,33.866665 V 48.683332"
         id="path4273-49-5"
         sodipodi:nodetypes="ccc" />
      <path
         style="fill:url(#linearGradient7331);fill-opacity:1;stroke:none;stroke-width:0.529167;stroke-linecap:round;stroke-linejoin:bevel;stroke-opacity:0.996078;stop-color:#000000"
         d="m 99.48333,35.983332 5.29167,-2.116666 v 14.816666 l -5.29167,4.233333"
         id="path4273-4-0"
         sodipodi:nodetypes="cccc" />
      <path
         style="fill:none;fill-opacity:1;stroke:#000000;stroke-width:0.529167;stroke-linecap:round;stroke-linejoin:bevel;stroke-opacity:0.996078;stop-color:#000000"
         d="M 99.48333,35.983333 104.775,33.866666 V 48.683332"
         id="path4273-49-2-4"
         sodipodi:nodetypes="ccc" />
      <path
         style="fill:none;fill-opacity:1;stroke:#800000;stroke-width:0.529167;stroke-linecap:round;stroke-linejoin:bevel;stroke-opacity:0.996078;stop-color:#000000"
         d="m 81.491664,48.683332 5.291667,4.233333 12.700001,10e-7 5.291668,-4.233333"
         id="path6963-8"
         sodipodi:nodetypes="cccc" />
    </g>
    <rect
       style="fill:none;fill-opacity:1;stroke:#800000;stroke-width:0.529167;stroke-linecap:round;stroke-linejoin:bevel;stroke-opacity:0.996078;stop-color:#000000"
       id="rect7363"
       width="8.4666662"
       height="5.2916665"
       x="88.900002"
       y="38.099998"
       rx="1.6711718e-06"
       ry="3.2764677e-07" />
    <rect
       style="fill:none;fill-opacity:1;stroke:#800000;stroke-width:0.529167;stroke-linecap:round;stroke-linejoin:bevel;stroke-opacity:0.996078;stop-color:#000000"
       id="rect7365"
       width="8.4666662"
       height="5.2916665"
       x="88.900002"
       y="45.508331"
       rx="1.6711718e-06"
       ry="3.2764677e-07" />
    <rect
       style="fill:none;fill-opacity:1;stroke:#800000;stroke-width:0.529167;stroke-linecap:round;stroke-linejoin:bevel;stroke-opacity:0.996078;stop-color:#000000"
       id="rect7363-7"
       width="8.4666662"
       height="5.2916665"
       x="172.50833"
       y="38.099998"
       rx="1.6711718e-06"
       ry="3.2764677e-07" />
    <rect
       style="fill:none;fill-opacity:1;stroke:#800000;stroke-width:0.529167;stroke-linecap:round;stroke-linejoin:bevel;stroke-opacity:0.996078;stop-color:#000000"
       id="rect7365-1"
       width="8.4666662"
       height="5.2916665"
       x="172.50833"
       y="45.508331"
       rx="1.6711718e-06"
       ry="3.2764677e-07" />
    <path
       style="fill:none;fill-opacity:1;stroke:#aa0000;stroke-width:0.529167;stroke-linecap:round;stroke-linejoin:bevel;stroke-opacity:0.996078;stop-color:#000000"
       d="M 118.53333,67.733332 120.65,33.866666 h 29.63333 L 152.4,67.733332"
       id="path7551"
       sodipodi:nodetypes="cccc" />
    <path
       style="fill:none;fill-opacity:1;stroke:#aa0000;stroke-width:0.529167;stroke-linecap:round;stroke-linejoin:bevel;stroke-opacity:0.996078;stop-color:#000000"
       d="m 119.59167,66.674999 2.11666,-31.75 H 149.225 l 2.11666,31.75"
       id="path7553"
       sodipodi:nodetypes="cccc" />
    <path
       style="fill:none;fill-opacity:1;stroke:#000000;stroke-width:0.529167;stroke-linecap:round;stroke-linejoin:bevel;stroke-opacity:0.996078;stop-color:#000000"
       d="M 69.849998,99.48333 V 33.866666 l 7.408333,-7.408334 H 193.67499 l 7.40834,7.408334 v 64.558331"
       id="path7588"
       sodipodi:nodetypes="cccccc" />
    <path
       style="fill:#000000;fill-opacity:1;stroke:#000000;stroke-width:1.05833;stroke-linecap:round;stroke-linejoin:bevel;stroke-miterlimit:4;stroke-dasharray:none;stroke-opacity:0.996078;stop-color:#000000"
       d="m 104.775,19.05 h 61.38333"
       id="path8370" />
    <path
       style="fill:#000000;fill-opacity:1;stroke:#000000;stroke-width:1.05833;stroke-linecap:round;stroke-linejoin:bevel;stroke-miterlimit:4;stroke-dasharray:none;stroke-opacity:0.996078;stop-color:#000000"
       d="m 103.71666,21.166666 h 63.5"
       id="path8370-7"
       sodipodi:nodetypes="cc" />
    <path
       style="fill:#000000;fill-opacity:1;stroke:#000000;stroke-width:1.05833;stroke-linecap:round;stroke-linejoin:bevel;stroke-miterlimit:4;stroke-dasharray:none;stroke-opacity:0.996078;stop-color:#000000"
       d="m 102.65833,23.283333 h 65.61666"
       id="path8370-2"
       sodipodi:nodetypes="cc" />
    <path
       id="rect9013"
       style="fill:none;stroke:#800000;stroke-width:1.05833;stroke-linecap:round;stroke-linejoin:bevel;stroke-opacity:0.996078;stop-color:#000000"
       d="m 196.84999,67.73333 v 5.291666 l -40.21666,2e-6 -3.175,-2.116667 H 117.475 l -3.175,2.116667 -41.274998,-2e-6 V 67.73333 Z"
       sodipodi:nodetypes="ccccccccc" />
    <path
       style="fill:#4d4d4d;fill-opacity:0.999561;stroke:none;stroke-width:1.05833;stroke-linecap:round;stroke-linejoin:bevel;stroke-miterlimit:4;stroke-dasharray:none;stroke-opacity:0.996078;stop-color:#000000"
       d="m 103.71667,76.199999 8.46666,-1e-6 -2.11666,2.116668 -4.23334,-2e-6 -2.11666,-2.116665"
       id="path14012"
       sodipodi:nodetypes="ccccc" />
    <path
       id="rect4088-26"
       style="fill:#001800;stroke-width:0.529167;stroke-linecap:round;stroke-linejoin:bevel;stroke-opacity:0.996078;stop-color:#000000"
       d="m 150.28333,76.199998 h 6.34999 l 3.17501,3.174999 h 6.35 l 3.175,-3.174999 h 6.35 l 4.23333,3.175001 v 8.466665 l -9.525,2.116667 -4.23333,3.174999 h -6.35001 L 156.08181,89.958331 146.05,87.841664 v -8.466665 z"
       sodipodi:nodetypes="ccccccccccccccc" />
    <path
       style="fill:#4d4d4d;fill-opacity:0.999561;stroke:none;stroke-width:1.05833;stroke-linecap:round;stroke-linejoin:bevel;stroke-miterlimit:4;stroke-dasharray:none;stroke-opacity:0.996078;stop-color:#000000"
       d="m 158.75,76.199998 8.46666,-10e-7 -2.11666,2.116668 -4.23334,-10e-7 -2.11666,-2.116665"
       id="path14012-1"
       sodipodi:nodetypes="ccccc" />
    <path
       id="rect16244"
       style="fill:#800000;fill-opacity:0.999561;stroke-width:1.05833;stroke-linecap:round;stroke-linejoin:bevel;stroke-opacity:0.996078;stop-color:#000000"
       d="m 134.40833,70.908333 h 2.11666 v 0 l 1.05834,27.516664 H 133.35 Z"
       sodipodi:nodetypes="cccccc" />
    <path
       style="fill:#800000;fill-opacity:0.999561;stroke:#000000;stroke-width:0.264583;stroke-linecap:round;stroke-linejoin:bevel;stroke-miterlimit:4;stroke-dasharray:none;stroke-opacity:0.996078;stop-color:#000000"
       d="m 77.258332,26.458333 -1.058333,-9.525"
       id="path20246" />
    <path
       style="fill:#800000;fill-opacity:0.999561;stroke:#000000;stroke-width:0.264583;stroke-linecap:round;stroke-linejoin:bevel;stroke-miterlimit:4;stroke-dasharray:none;stroke-opacity:0.996078;stop-color:#000000"
       d="m 69.849999,33.866666 -6.35,-4.233333"
       id="path20281" />
    <path
       style="fill:#800000;fill-opacity:0.999561;stroke:#000000;stroke-width:0.264583;stroke-linecap:round;stroke-linejoin:bevel;stroke-miterlimit:4;stroke-dasharray:none;stroke-opacity:0.996078;stop-color:#000000"
       d="m 193.675,26.458333 1.05833,-9.525"
       id="path20283" />
    <path
       style="fill:#800000;fill-opacity:0.999561;stroke:#000000;stroke-width:0.264583;stroke-linecap:round;stroke-linejoin:bevel;stroke-miterlimit:4;stroke-dasharray:none;stroke-opacity:0.996078;stop-color:#000000"
       d="m 201.08333,33.866666 6.35,-4.233333"
       id="path20285" />
    <g
       id="g20374">
      <path
         style="fill:none;fill-opacity:1;stroke:#808080;stroke-width:4.23334;stroke-linecap:round;stroke-linejoin:round;stroke-miterlimit:4;stroke-dasharray:none;stroke-opacity:0.999962;stop-color:#000000"
         d="M 76.199997,8.4666666 H 194.73333"
         id="path21152" />
      <path
         style="fill:none;fill-opacity:1;stroke:#808080;stroke-width:4.23334;stroke-linecap:round;stroke-linejoin:round;stroke-miterlimit:4;stroke-dasharray:none;stroke-opacity:0.999962;stop-color:#000000"
         d="m 203.19999,12.7 17.96052,17.960511"
         id="path21152-8" />
      <path
         style="fill:none;fill-opacity:1;stroke:#808080;stroke-width:4.23334;stroke-linecap:round;stroke-linejoin:round;stroke-miterlimit:4;stroke-dasharray:none;stroke-opacity:0.999962;stop-color:#000000"
         d="M 67.733331,12.7 49.772811,30.660511"
         id="path21152-8-8" />
      <path
         style="fill:none;fill-opacity:1;stroke:#808080;stroke-width:4.23333;stroke-linecap:round;stroke-linejoin:round;stroke-miterlimit:4;stroke-dasharray:none;stroke-opacity:0.999962;stop-color:#000000"
         d="M 97.366665,4.2333333 V 21.166666"
         id="path21725" />
      <path
         style="fill:none;fill-opacity:1;stroke:#808080;stroke-width:4.23333;stroke-linecap:round;stroke-linejoin:round;stroke-miterlimit:4;stroke-dasharray:none;stroke-opacity:0.999962;stop-color:#000000"
         d="M 55.759657,17.659658 67.733331,29.633332"
         id="path21725-7" />
      <path
         style="fill:none;fill-opacity:1;stroke:#808080;stroke-width:4.23333;stroke-linecap:round;stroke-linejoin:round;stroke-miterlimit:4;stroke-dasharray:none;stroke-opacity:0.999962;stop-color:#000000"
         d="M 215.17367,17.659658 203.19999,29.633332"
         id="path21725-7-7" />
      <path
         style="fill:none;fill-opacity:1;stroke:#808080;stroke-width:4.23333;stroke-linecap:round;stroke-linejoin:round;stroke-miterlimit:4;stroke-dasharray:none;stroke-opacity:0.999962;stop-color:#000000"
         d="M 173.56666,4.2333332 V 21.166666"
         id="path21725-9" />
    </g>
    <rect
       style="fill:#e6e6e6;fill-opacity:0.999561;stroke:none;stroke-width:0.264583;stroke-linecap:round;stroke-linejoin:bevel;stroke-miterlimit:4;stroke-dasharray:none;stroke-opacity:0.996078;stop-color:#000000"
       id="rect20406"
       width="4.2333317"
       height="111.12499"
       x="74.083328"
       y="118.53333"
       rx="2.1166646"
       ry="2.1166635" />
    <rect
       style="fill:url(#linearGradient20878);fill-opacity:1;stroke:none;stroke-width:0.264583;stroke-linecap:round;stroke-linejoin:bevel;stroke-miterlimit:4;stroke-dasharray:none;stroke-opacity:0.996078;stop-color:#000000"
       id="rect20406-5"
       width="4.2333317"
       height="111.12499"
       x="74.083328"
       y="118.53333"
       rx="2.1166646"
       ry="2.1166635" />
    <rect
       style="fill:url(#linearGradient21212);fill-opacity:1;stroke:none;stroke-width:0.264583;stroke-linecap:round;stroke-linejoin:bevel;stroke-miterlimit:4;stroke-dasharray:none;stroke-opacity:0.996078;stop-color:#000000"
       id="rect20406-5-9"
       width="4.2333317"
       height="111.12499"
       x="-78.316658"
       y="118.53333"
       rx="2.1166646"
       ry="2.1166635"
       transform="scale(-1,1)" />
    <g
       id="g21298-9"
       transform="matrix(0,1,-0.99047617,0,307.90443,40.216667)"
       style="stroke-width:1.0048;stroke:none">
      <rect
         style="fill:#e6e6e6;fill-opacity:0.999561;stroke:none;stroke-width:0.265852;stroke-linecap:round;stroke-linejoin:bevel;stroke-miterlimit:4;stroke-dasharray:none;stroke-opacity:0.996078;stop-color:#000000"
         id="rect20406-77"
         width="4.2333317"
         height="111.12499"
         x="78.316666"
         y="118.53333"
         rx="2.1370173"
         ry="2.1166635" />
      <rect
         style="fill:url(#linearGradient21604);fill-opacity:1;stroke:none;stroke-width:0.265852;stroke-linecap:round;stroke-linejoin:bevel;stroke-miterlimit:4;stroke-dasharray:none;stroke-opacity:0.996078;stop-color:#000000"
         id="rect20406-5-6"
         width="4.2333317"
         height="111.12499"
         x="78.316666"
         y="118.53333"
         rx="2.1370173"
         ry="2.1166635" />
      <rect
         style="fill:url(#linearGradient21606);fill-opacity:1;stroke:none;stroke-width:0.265852;stroke-linecap:round;stroke-linejoin:bevel;stroke-miterlimit:4;stroke-dasharray:none;stroke-opacity:0.996078;stop-color:#000000"
         id="rect20406-5-9-7"
         width="4.2333317"
         height="111.12499"
         x="-82.549995"
         y="118.53333"
         rx="2.1370173"
         ry="2.1166635"
         transform="scale(-1,1)" />
    </g>
    <g
       id="g21298-9-9"
       transform="matrix(0,1,-1.1047619,0,327.80111,-71.966666)"
       style="stroke:none;stroke-width:0.951409">
      <rect
         style="fill:#e6e6e6;fill-opacity:0.999561;stroke:none;stroke-width:0.251726;stroke-linecap:round;stroke-linejoin:bevel;stroke-miterlimit:4;stroke-dasharray:none;stroke-opacity:0.996078;stop-color:#000000"
         id="rect20406-77-0"
         width="4.2333317"
         height="111.12499"
         x="78.316666"
         y="118.53333"
         rx="1.9159464"
         ry="2.1166635" />
      <rect
         style="fill:url(#linearGradient22083);fill-opacity:1;stroke:none;stroke-width:0.251726;stroke-linecap:round;stroke-linejoin:bevel;stroke-miterlimit:4;stroke-dasharray:none;stroke-opacity:0.996078;stop-color:#000000"
         id="rect20406-5-6-8"
         width="4.2333317"
         height="111.12499"
         x="78.316666"
         y="118.53333"
         rx="1.9159464"
         ry="2.1166635" />
      <rect
         style="fill:url(#linearGradient22085);fill-opacity:1;stroke:none;stroke-width:0.251726;stroke-linecap:round;stroke-linejoin:bevel;stroke-miterlimit:4;stroke-dasharray:none;stroke-opacity:0.996078;stop-color:#000000"
         id="rect20406-5-9-7-85"
         width="4.2333317"
         height="111.12499"
         x="-82.549995"
         y="118.53333"
         rx="1.9159464"
         ry="2.1166635"
         transform="scale(-1,1)" />
    </g>
    <g
       id="g21298-9-9-8"
       transform="matrix(0,1,-0.21904765,0,150.84778,-66.674996)"
       style="stroke:none;stroke-width:2.13664" />
    <g
       id="g21298-9-3"
       transform="matrix(0,1,-0.99047617,0,307.90443,147.10833)"
       style="stroke-width:1.0048;stroke:none">
      <rect
         style="fill:#e6e6e6;fill-opacity:0.999561;stroke:none;stroke-width:0.265852;stroke-linecap:round;stroke-linejoin:bevel;stroke-miterlimit:4;stroke-dasharray:none;stroke-opacity:0.996078;stop-color:#000000"
         id="rect20406-77-9"
         width="4.2333317"
         height="111.12499"
         x="78.316666"
         y="118.53333"
         rx="2.1370173"
         ry="2.1166635" />
      <rect
         style="fill:url(#linearGradient21720);fill-opacity:1;stroke:none;stroke-width:0.265852;stroke-linecap:round;stroke-linejoin:bevel;stroke-miterlimit:4;stroke-dasharray:none;stroke-opacity:0.996078;stop-color:#000000"
         id="rect20406-5-6-4"
         width="4.2333317"
         height="111.12499"
         x="78.316666"
         y="118.53333"
         rx="2.1370173"
         ry="2.1166635" />
      <rect
         style="fill:url(#linearGradient21722);fill-opacity:1;stroke:none;stroke-width:0.265852;stroke-linecap:round;stroke-linejoin:bevel;stroke-miterlimit:4;stroke-dasharray:none;stroke-opacity:0.996078;stop-color:#000000"
         id="rect20406-5-9-7-8"
         width="4.2333317"
         height="111.12499"
         x="-82.549995"
         y="118.53333"
         rx="2.1370173"
         ry="2.1166635"
         transform="scale(-1,1)" />
    </g>
    <g
       id="g21298-1"
       transform="translate(114.29999)"
       style="stroke:none">
      <rect
         style="fill:#e6e6e6;fill-opacity:0.999561;stroke:none;stroke-width:0.264583;stroke-linecap:round;stroke-linejoin:bevel;stroke-miterlimit:4;stroke-dasharray:none;stroke-opacity:0.996078;stop-color:#000000"
         id="rect20406-7"
         width="4.2333317"
         height="111.12499"
         x="78.316666"
         y="118.53333"
         rx="2.1166646"
         ry="2.1166635" />
      <rect
         style="fill:url(#linearGradient21408);fill-opacity:1;stroke:none;stroke-width:0.264583;stroke-linecap:round;stroke-linejoin:bevel;stroke-miterlimit:4;stroke-dasharray:none;stroke-opacity:0.996078;stop-color:#000000"
         id="rect20406-5-7"
         width="4.2333317"
         height="111.12499"
         x="78.316666"
         y="118.53333"
         rx="2.1166646"
         ry="2.1166635" />
      <rect
         style="fill:url(#linearGradient21410);fill-opacity:1;stroke:none;stroke-width:0.264583;stroke-linecap:round;stroke-linejoin:bevel;stroke-miterlimit:4;stroke-dasharray:none;stroke-opacity:0.996078;stop-color:#000000"
         id="rect20406-5-9-1"
         width="4.2333317"
         height="111.12499"
         x="-82.549995"
         y="118.53333"
         rx="2.1166646"
         ry="2.1166635"
         transform="scale(-1,1)" />
    </g>
  </g>
</svg>
