<?xml version="1.0" encoding="UTF-8" standalone="no"?>
<svg
   width="2560"
   height="2816"
   viewBox="0 0 677.3333 745.06669"
   version="1.1"
   id="svg8"
   inkscape:version="1.1.2 (0a00cf5339, 2022-02-04)"
   sodipodi:docname="learjet_45.svg"
   xmlns:inkscape="http://www.inkscape.org/namespaces/inkscape"
   xmlns:sodipodi="http://sodipodi.sourceforge.net/DTD/sodipodi-0.dtd"
   xmlns:xlink="http://www.w3.org/1999/xlink"
   xmlns="http://www.w3.org/2000/svg"
   xmlns:svg="http://www.w3.org/2000/svg"
   xmlns:rdf="http://www.w3.org/1999/02/22-rdf-syntax-ns#"
   xmlns:cc="http://creativecommons.org/ns#"
   xmlns:dc="http://purl.org/dc/elements/1.1/">
  <defs
     id="defs2">
    <linearGradient
       inkscape:collect="always"
       id="linearGradient15728">
      <stop
         style="stop-color:#b3b3b3;stop-opacity:1;"
         offset="0"
         id="stop15724" />
      <stop
         style="stop-color:#000000;stop-opacity:0.9695738"
         offset="1"
         id="stop15726" />
    </linearGradient>
    <linearGradient
       inkscape:collect="always"
       id="linearGradient13779">
      <stop
         style="stop-color:#000000;stop-opacity:1"
         offset="0"
         id="stop13775" />
      <stop
         style="stop-color:#e6e6e6;stop-opacity:0;"
         offset="1"
         id="stop13777" />
    </linearGradient>
    <linearGradient
       inkscape:collect="always"
       xlink:href="#linearGradient13779"
       id="linearGradient13781"
       x1="375.70831"
       y1="440.26666"
       x2="394.75833"
       y2="440.26666"
       gradientUnits="userSpaceOnUse"
       gradientTransform="translate(-1.2000014e-5)" />
    <linearGradient
       inkscape:collect="always"
       xlink:href="#linearGradient13779"
       id="linearGradient14307"
       gradientUnits="userSpaceOnUse"
       x1="375.70831"
       y1="440.26666"
       x2="394.75833"
       y2="440.26666"
       gradientTransform="matrix(-1,0,0,1,786.34164,6.0000001e-7)" />
    <linearGradient
       inkscape:collect="always"
       xlink:href="#linearGradient13779"
       id="linearGradient14695"
       gradientUnits="userSpaceOnUse"
       gradientTransform="matrix(-1,0,0,1,677.33333,-3.6e-6)"
       x1="375.70831"
       y1="440.26666"
       x2="394.75833"
       y2="440.26666" />
    <linearGradient
       inkscape:collect="always"
       xlink:href="#linearGradient13779"
       id="linearGradient14697"
       gradientUnits="userSpaceOnUse"
       gradientTransform="translate(-109.00832)"
       x1="375.70831"
       y1="440.26666"
       x2="394.75833"
       y2="440.26666" />
    <radialGradient
       inkscape:collect="always"
       xlink:href="#linearGradient15728"
       id="radialGradient15730"
       cx="308.50418"
       cy="135.46664"
       fx="308.50418"
       fy="135.46664"
       r="30.1625"
       gradientTransform="matrix(-3.8913764e-6,-1.6842102,1.1228067,-9.568284e-7,186.56499,671.98597)"
       gradientUnits="userSpaceOnUse" />
  </defs>
  <sodipodi:namedview
     id="base"
     pagecolor="#ffffff"
     bordercolor="#666666"
     borderopacity="1.0"
     inkscape:pageopacity="0"
     inkscape:pageshadow="2"
     inkscape:zoom="0.49497475"
     inkscape:cx="943.48248"
     inkscape:cy="1332.3912"
     inkscape:document-units="px"
     inkscape:current-layer="layer1"
     inkscape:document-rotation="0"
     showgrid="true"
     units="px"
     inkscape:window-width="2560"
     inkscape:window-height="1343"
     inkscape:window-x="1200"
     inkscape:window-y="240"
     inkscape:window-maximized="1"
     inkscape:snap-grids="true"
     inkscape:pagecheckerboard="0"
     width="2560px"
     inkscape:snap-smooth-nodes="true">
    <inkscape:grid
       type="xygrid"
       id="grid833"
       units="px"
       empspacing="16"
       spacingy="1.0583333"
       spacingx="1.0583333" />
  </sodipodi:namedview>
  <metadata
     id="metadata5">
    <rdf:RDF>
      <cc:Work
         rdf:about="">
        <dc:format>image/svg+xml</dc:format>
        <dc:type
           rdf:resource="http://purl.org/dc/dcmitype/StillImage" />
      </cc:Work>
    </rdf:RDF>
  </metadata>
  <g
     inkscape:groupmode="layer"
     id="layer1"
     inkscape:label="Learjet 45"
     style="opacity:1">
    <path
       style="fill:#cccccc;stroke:#666666;stroke-width:1.05833;stroke-linecap:round;stroke-linejoin:bevel;stroke-opacity:0.996078;stop-color:#000000;opacity:1"
       d="m 364.06666,507.99999 h 25.4 v -80.43333 h -25.4"
       id="path3017" />
    <path
       style="fill:#e6e6e6;stroke:#000000;stroke-width:2.11667;stroke-linecap:round;stroke-linejoin:bevel;stroke-miterlimit:4;stroke-dasharray:none;stroke-opacity:0.996078;stop-color:#000000;opacity:1"
       d="m 639.23333,389.46666 c 0,0 7.40832,1.05833 8.46666,8.46667 1.05834,7.40834 7.57026,37.5178 12.7,55.03333 v 16.93333 l -16.93333,-25.4 h -4.23333"
       id="path2403"
       sodipodi:nodetypes="cscccc" />
    <path
       style="fill:#e6e6e6;stroke:#000000;stroke-width:2.11666665;stroke-linecap:round;stroke-linejoin:bevel;stroke-opacity:0.996078;stop-color:#000000;stroke-miterlimit:4;stroke-dasharray:none;opacity:1"
       d="m 372.53333,309.03333 266.7,80.43333 v 55.03333 l -275.16667,-8.46666"
       id="path2368" />
    <path
       style="fill:none;stroke:#666666;stroke-width:1.05833;stroke-linecap:round;stroke-linejoin:bevel;stroke-opacity:0.996078;stop-color:#000000;opacity:1"
       d="m 491.06666,440.26666 v -25.4 l 76.2,8.46667 -10e-6,19.04999"
       id="path2647"
       sodipodi:nodetypes="cccc" />
    <path
       style="fill:#808080;stroke:#666666;stroke-width:1.05833;stroke-linecap:round;stroke-linejoin:bevel;stroke-opacity:0.996078;stop-color:#000000;opacity:1"
       d="m 520.69999,440.26666 v -4.23333 h 21.16667 l -10e-6,5.29166"
       id="path2649"
       sodipodi:nodetypes="cccc" />
    <path
       style="fill:#808080;stroke:#666666;stroke-width:1.05833;stroke-linecap:round;stroke-linejoin:bevel;stroke-opacity:0.996078;stop-color:#000000;opacity:1"
       d="M 639.23333,427.56666 368.3,393.7"
       id="path2612" />
    <path
       style="opacity:1;fill:none;stroke:#000000;stroke-width:2.11667;stroke-linecap:round;stroke-linejoin:bevel;stroke-miterlimit:4;stroke-dasharray:none;stroke-opacity:0.996078;stop-color:#000000"
       d="m 372.53331,309.03333 266.7,80.43333 v 55.03333 l -275.16667,-8.46666"
       id="path2368-3" />
    <path
       style="opacity:1;fill:#cccccc;stroke:#666666;stroke-width:1.05833;stroke-linecap:round;stroke-linejoin:bevel;stroke-opacity:0.996078;stop-color:#000000"
       d="m 313.26666,507.99998 h -25.4 v -80.43333 h 25.4"
       id="path3017-9" />
    <path
       style="opacity:1;fill:#e6e6e6;stroke:#000000;stroke-width:2.11667;stroke-linecap:round;stroke-linejoin:bevel;stroke-miterlimit:4;stroke-dasharray:none;stroke-opacity:0.996078;stop-color:#000000"
       d="m 38.099985,389.46665 c 0,0 -7.40832,1.05833 -8.46666,8.46667 -1.05834,7.40834 -7.570261,37.5178 -12.700001,55.03333 v 16.93333 l 16.933331,-25.4 h 4.23333"
       id="path2403-1"
       sodipodi:nodetypes="cscccc" />
    <path
       style="opacity:1;fill:#e6e6e6;stroke:#000000;stroke-width:2.11667;stroke-linecap:round;stroke-linejoin:bevel;stroke-miterlimit:4;stroke-dasharray:none;stroke-opacity:0.996078;stop-color:#000000"
       d="M 304.79999,309.03332 38.099985,389.46665 v 55.03333 l 275.166675,-8.46666"
       id="path2368-2" />
    <path
       style="opacity:1;fill:none;stroke:#666666;stroke-width:1.05833;stroke-linecap:round;stroke-linejoin:bevel;stroke-opacity:0.996078;stop-color:#000000"
       d="m 186.26666,440.26665 v -25.4 l -76.20001,8.46667 1e-5,19.04999"
       id="path2647-7"
       sodipodi:nodetypes="cccc" />
    <path
       style="opacity:1;fill:#808080;stroke:#666666;stroke-width:1.05833;stroke-linecap:round;stroke-linejoin:bevel;stroke-opacity:0.996078;stop-color:#000000"
       d="m 156.63333,440.26665 v -4.23333 h -21.16667 l 1e-5,5.29166"
       id="path2649-0"
       sodipodi:nodetypes="cccc" />
    <path
       style="opacity:1;fill:#808080;stroke:#666666;stroke-width:1.05833;stroke-linecap:round;stroke-linejoin:bevel;stroke-opacity:0.996078;stop-color:#000000"
       d="M 38.099985,427.56665 309.03332,393.69999"
       id="path2612-9" />
    <path
       style="fill:none;stroke:#000000;stroke-width:2.11667;stroke-linecap:round;stroke-linejoin:bevel;stroke-miterlimit:4;stroke-dasharray:none;stroke-opacity:0.996078;stop-color:#000000;opacity:1"
       d="M 304.80001,309.03332 38.100005,389.46665 v 55.03333 l 275.166675,-8.46666"
       id="path2368-3-3" />
    <path
       style="fill:#e6e6e6;stroke:#000000;stroke-width:2.11667;stroke-linecap:round;stroke-linejoin:bevel;stroke-miterlimit:4;stroke-dasharray:none;stroke-opacity:0.996078;stop-color:#000000;opacity:1"
       d="m 338.66666,11.641666 c 1.99561,-2e-6 4.23334,5.291667 4.23334,5.291667 12.69999,25.399999 23.28332,50.799998 29.63333,76.2 6.34999,25.399997 8.46666,50.799997 8.46667,76.199997 v 165.1 l -8.46667,71.96666 -4.23333,67.73334 -4.23334,67.73333 -12.7,88.9 h -25.4 l -12.7,-88.9 -4.23333,-67.73333 L 304.8,406.4 296.33333,334.43333 v -165.1 c -10e-6,-25.4 2.11666,-50.8 8.46667,-76.199997 6.34999,-25.400002 16.93332,-50.800001 29.63333,-76.2 0,0 2.23771,-5.291665 4.23333,-5.291667 z"
       id="path184"
       sodipodi:nodetypes="zccccccccccccccccz" />
    <path
       style="fill:#e6e6e6;stroke:#666666;stroke-width:1.05833;stroke-linecap:round;stroke-linejoin:bevel;stroke-opacity:0.996078;stop-color:#000000;opacity:1"
       d="m 381,321.73333 -10.58335,-4.23334 V 296.33332 L 381,292.1"
       id="path3187"
       sodipodi:nodetypes="cccc" />
    <path
       style="fill:#e6e6e6;stroke-width:2.11666665;stroke-linecap:round;stroke-linejoin:bevel;stroke-opacity:0.996078;stop-color:#000000;stroke:#000000;stroke-miterlimit:4;stroke-dasharray:none;opacity:1"
       d="m 338.66666,702.73332 110.06667,16.93334 v -29.63333 l -8.46667,-12.7 -88.9,-46.56667 h -25.4 l -88.9,46.56667 -8.46666,12.7 v 29.63333 z"
       id="path1749"
       sodipodi:nodetypes="cccccccccc" />
    <path
       style="fill:#808080;stroke:#666666;stroke-width:1.05833;stroke-linecap:round;stroke-linejoin:bevel;stroke-opacity:0.996078;stop-color:#000000;opacity:1"
       d="m 491.06666,423.33333 -80.43333,-4.23334"
       id="path2651" />
    <path
       style="fill:none;stroke:#666666;stroke-width:1.05833;stroke-linecap:square;stroke-linejoin:bevel;stroke-opacity:0.996078;stop-color:#000000;opacity:1"
       d="m 465.66665,421.21665 10e-6,-10.58332 -59.26667,-4.23334"
       id="path2653"
       sodipodi:nodetypes="ccc" />
    <path
       style="fill:#e6e6e6;stroke:#666666;stroke-width:2.11666665;stroke-linecap:round;stroke-linejoin:bevel;stroke-opacity:0.996078;stop-color:#000000;stroke-miterlimit:4;stroke-dasharray:none;opacity:1"
       d="m 381,393.7 h 25.39999 c 8.25567,40.07268 4.23334,80.43333 -4.23333,118.53333 H 385.23333 C 376.76666,474.13333 370.95041,433.39161 381,393.7"
       id="path2655"
       sodipodi:nodetypes="ccccc" />
    <path
       style="opacity:1;fill:url(#linearGradient13781);fill-opacity:1;stroke:#666666;stroke-width:2.11667;stroke-linecap:round;stroke-linejoin:bevel;stroke-miterlimit:4;stroke-dasharray:none;stroke-opacity:0.996078;stop-color:#000000"
       d="m 380.99999,393.69999 h 25.39999 c 8.25567,40.07268 4.23334,80.43333 -4.23333,118.53333 h -16.93333 c -8.46667,-38.1 -14.28292,-78.84172 -4.23333,-118.53333"
       id="path2655-7"
       sodipodi:nodetypes="ccccc" />
    <path
       style="opacity:1;fill:url(#linearGradient14307);fill-opacity:1;stroke:#666666;stroke-width:2.11667;stroke-linecap:round;stroke-linejoin:bevel;stroke-miterlimit:4;stroke-dasharray:none;stroke-opacity:0.996078;stop-color:#000000"
       d="m 405.34164,393.69999 h -25.39999 c -8.25567,40.07268 -4.23334,80.43333 4.23333,118.53333 h 16.93333 c 8.46667,-38.1 14.28292,-78.84172 4.23333,-118.53333"
       id="path2655-7-5"
       sodipodi:nodetypes="ccccc" />
    <path
       style="opacity:1;fill:#808080;stroke:#666666;stroke-width:1.05833;stroke-linecap:round;stroke-linejoin:bevel;stroke-opacity:0.996078;stop-color:#000000"
       d="m 186.26666,423.33332 80.43333,-4.23334"
       id="path2651-6" />
    <path
       style="opacity:1;fill:none;stroke:#666666;stroke-width:1.05833;stroke-linecap:square;stroke-linejoin:bevel;stroke-opacity:0.996078;stop-color:#000000"
       d="m 211.66667,421.21664 -1e-5,-10.58332 59.26667,-4.23334"
       id="path2653-0"
       sodipodi:nodetypes="ccc" />
    <path
       style="opacity:1;fill:#e6e6e6;stroke:#666666;stroke-width:2.11667;stroke-linecap:round;stroke-linejoin:bevel;stroke-miterlimit:4;stroke-dasharray:none;stroke-opacity:0.996078;stop-color:#000000"
       d="m 296.33332,393.69999 h -25.39999 c -8.25567,40.07268 -4.23334,80.43333 4.23333,118.53333 h 16.93333 c 8.46667,-38.1 14.28292,-78.84172 4.23333,-118.53333"
       id="path2655-6"
       sodipodi:nodetypes="ccccc" />
    <path
       style="fill:url(#linearGradient14695);fill-opacity:1;stroke:#666666;stroke-width:2.11667;stroke-linecap:round;stroke-linejoin:bevel;stroke-miterlimit:4;stroke-dasharray:none;stroke-opacity:0.996078;stop-color:#000000;opacity:1"
       d="m 296.33333,393.69998 h -25.39999 c -8.25567,40.07268 -4.23334,80.43333 4.23333,118.53333 H 292.1 c 8.46667,-38.1 14.28292,-78.84172 4.23333,-118.53333"
       id="path2655-7-2"
       sodipodi:nodetypes="ccccc" />
    <path
       style="fill:url(#linearGradient14697);fill-opacity:1;stroke:#666666;stroke-width:2.11667;stroke-linecap:round;stroke-linejoin:bevel;stroke-miterlimit:4;stroke-dasharray:none;stroke-opacity:0.996078;stop-color:#000000;opacity:1"
       d="m 271.99168,393.69998 h 25.39999 c 8.25567,40.07268 4.23334,80.43333 -4.23333,118.53333 h -16.93333 c -8.46667,-38.1 -14.28292,-78.84172 -4.23333,-118.53333"
       id="path2655-7-5-6"
       sodipodi:nodetypes="ccccc" />
    <path
       style="fill:#e6e6e6;stroke:#666666;stroke-width:1.05833;stroke-linecap:round;stroke-linejoin:bevel;stroke-opacity:0.996078;stop-color:#000000;opacity:1"
       d="m 296.33333,182.03333 h 16.93333 v 50.8 h -16.93333"
       id="path3165" />
    <path
       style="fill:#b3b3b3;stroke:#666666;stroke-width:1.05833;stroke-linecap:round;stroke-linejoin:bevel;stroke-opacity:0.996078;stop-color:#000000;opacity:1"
       d="m 304.79999,93.13333 h 67.73333"
       id="path3167"
       sodipodi:nodetypes="cc" />
    <path
       style="fill:#b3b3b3;stroke:#666666;stroke-width:1.05833;stroke-linecap:round;stroke-linejoin:bevel;stroke-opacity:0.996078;stop-color:#000000;opacity:1"
       d="m 322.79166,42.333332 h 31.75"
       id="path3169"
       sodipodi:nodetypes="cc" />
    <path
       style="fill:#b3b3b3;stroke:#666666;stroke-width:1.05833;stroke-linecap:round;stroke-linejoin:bevel;stroke-opacity:0.996078;stop-color:#000000;opacity:1"
       d="m 331.25832,25.399999 h 14.81667"
       id="path3171"
       sodipodi:nodetypes="cc" />
    <path
       style="fill:url(#radialGradient15730);stroke:#666666;stroke-width:1.05833;stroke-linecap:round;stroke-linejoin:bevel;stroke-opacity:0.996078;stop-color:#000000;opacity:1;fill-opacity:1"
       d="m 329.14166,110.06666 h 19.05 c 16.93333,14.81667 20.10833,25.4 20.10833,42.33334 l 0,8.46666 h -8.46667 c 0,0 -9.15148,-25.48343 -21.16666,-25.4 -12.01518,0.0834 -21.16666,25.4 -21.16666,25.4 h -8.46667 c 0,-2.76065 -10e-6,-5.64379 -10e-6,-8.46666 0,-16.93334 3.175,-27.51667 20.10834,-42.33334 z"
       id="path3173"
       sodipodi:nodetypes="ccccczccsc" />
    <path
       style="fill:#1a1a1a;stroke:#666666;stroke-width:1.05833;stroke-linecap:round;stroke-linejoin:bevel;stroke-opacity:0.996078;stop-color:#000000;opacity:1"
       d="M 296.33333,245.53333 H 304.8 V 254 h -8.46667"
       id="path3175" />
    <path
       style="fill:#1a1a1a;stroke:#666666;stroke-width:1.05833;stroke-linecap:round;stroke-linejoin:bevel;stroke-opacity:0.996078;stop-color:#000000;opacity:1"
       d="M 296.33333,275.16666 H 304.8 v 8.46667 h -8.46667"
       id="path3177" />
    <path
       style="fill:none;stroke:#000000;stroke-width:2.11667;stroke-linecap:round;stroke-linejoin:bevel;stroke-miterlimit:4;stroke-dasharray:none;stroke-opacity:0.996078;stop-color:#000000"
       d="m 338.66665,11.641673 c 1.99561,-1e-5 4.23334,5.29166 4.23334,5.29166 12.69999,25.400002 23.28332,50.800001 29.63333,76.200003 6.34999,25.399994 8.46666,50.799994 8.46667,76.199994 v 165.1 l -8.46667,71.96666 -4.23333,67.73334 -4.23334,67.73333 -12.7,88.9 h -25.4 l -12.7,-88.9 -4.23333,-67.73333 -4.23333,-67.73333 -8.46667,-71.96667 v -165.1 c -1e-5,-25.4 2.11666,-50.8 8.46667,-76.199994 6.34999,-25.400002 16.93332,-50.800001 29.63333,-76.200003 0,0 2.23771,-5.29166 4.23333,-5.29166 z"
       id="path184-1"
       sodipodi:nodetypes="zccccccccccccccccz" />
    <path
       style="fill:#1a1a1a;stroke:#666666;stroke-width:1.05833;stroke-linecap:round;stroke-linejoin:bevel;stroke-opacity:0.996078;stop-color:#000000;opacity:1"
       d="m 381,245.53333 h -8.46667 V 254 H 381"
       id="path3179" />
    <path
       style="fill:#1a1a1a;stroke:#666666;stroke-width:1.05833;stroke-linecap:round;stroke-linejoin:bevel;stroke-opacity:0.996078;stop-color:#000000;opacity:1"
       d="m 381,207.43333 h -8.46667 v -8.46667 H 381"
       id="path3181" />
    <path
       style="fill:#1a1a1a;stroke:#666666;stroke-width:1.05833;stroke-linecap:round;stroke-linejoin:bevel;stroke-opacity:0.996078;stop-color:#000000;opacity:1"
       d="m 381,275.16666 h -8.46667 v 8.46667 H 381"
       id="path3183" />
    <path
       style="fill:#1a1a1a;stroke:#666666;stroke-width:1.05833;stroke-linecap:round;stroke-linejoin:bevel;stroke-opacity:0.996078;stop-color:#000000;opacity:1"
       d="m 381,304.8 h -8.46667 v 8.46666 H 381"
       id="path3185" />
    <path
       style="fill:#1a1a1a;stroke:#666666;stroke-width:1.05833;stroke-linecap:round;stroke-linejoin:bevel;stroke-opacity:0.996078;stop-color:#000000;opacity:1"
       d="M 296.33333,304.8 H 304.8 v 8.46666 h -8.46667"
       id="path3189"
       sodipodi:nodetypes="cccc" />
    <path
       style="fill:#1a1a1a;stroke:#666666;stroke-width:1.05833;stroke-linecap:round;stroke-linejoin:bevel;stroke-opacity:0.996078;stop-color:#000000;opacity:1"
       d="M 296.33333,334.43333 H 304.8 V 342.9 l -7.40834,-10e-6"
       id="path3191"
       sodipodi:nodetypes="cccc" />
    <path
       style="fill:#b3b3b3;stroke:#666666;stroke-width:1.05833;stroke-linecap:round;stroke-linejoin:bevel;stroke-opacity:0.996078;stop-color:#000000;opacity:1"
       d="m 338.66666,495.29999 c 3.175,-10e-6 8.46666,80.43333 8.46666,80.43333 l -2.11666,55.03333 h -12.7 l -2.11667,-55.03333 c 0,0 5.29167,-80.43332 8.46667,-80.43333 z"
       id="path3283"
       sodipodi:nodetypes="zccccz" />
    <path
       style="opacity:1;fill:#b3b3b3;stroke:#808080;stroke-width:1.05834;stroke-linecap:square;stroke-linejoin:bevel;stroke-miterlimit:4;stroke-dasharray:none;stroke-opacity:0.996078;stop-color:#000000"
       d="m 336.54999,630.76664 -10e-6,71.9667 4.23334,-3e-5 10e-6,-71.96667 h -4.23334"
       id="path13287"
       sodipodi:nodetypes="ccccc" />
  </g>
</svg>
